   1               		.file	"chdebug.c"
   2               	__SP_H__ = 0x3e
   3               	__SP_L__ = 0x3d
   4               	__SREG__ = 0x3f
   5               	__tmp_reg__ = 0
   6               	__zero_reg__ = 1
   7               		.text
   8               	.Ltext0:
   9               		.cfi_sections	.debug_frame
  10               	.Letext0:
  11               		.file 1 "/Applications/Arduino-1.6.6.app/Contents/Java/hardware/tools/avr/avr/include/stdint.h"
  12               		.file 2 "./os/rt/ports/AVR/compilers/GCC/chtypes.h"
  13               		.file 3 "./os/rt/include/chsystypes.h"
  14               		.file 4 "./os/rt/include/chschd.h"
  15               		.file 5 "./os/rt/ports/AVR/chcore.h"
  16               		.file 6 "./os/rt/include/chsem.h"
  17               		.file 7 "./os/rt/include/chmtx.h"
DEFINED SYMBOLS
                            *ABS*:00000000 chdebug.c
/var/folders/gz/dqw9_7nx0r775dkkpq56lfw40000gn/T//ccBKTIfX.s:2      *ABS*:0000003e __SP_H__
/var/folders/gz/dqw9_7nx0r775dkkpq56lfw40000gn/T//ccBKTIfX.s:3      *ABS*:0000003d __SP_L__
/var/folders/gz/dqw9_7nx0r775dkkpq56lfw40000gn/T//ccBKTIfX.s:4      *ABS*:0000003f __SREG__
/var/folders/gz/dqw9_7nx0r775dkkpq56lfw40000gn/T//ccBKTIfX.s:5      *ABS*:00000000 __tmp_reg__
/var/folders/gz/dqw9_7nx0r775dkkpq56lfw40000gn/T//ccBKTIfX.s:6      *ABS*:00000001 __zero_reg__

NO UNDEFINED SYMBOLS
