   1               		.file	"chcore.c"
   2               	__SP_H__ = 0x3e
   3               	__SP_L__ = 0x3d
   4               	__SREG__ = 0x3f
   5               	__tmp_reg__ = 0
   6               	__zero_reg__ = 1
   7               		.text
   8               	.Ltext0:
   9               		.cfi_sections	.debug_frame
  10               		.section	.text.port_switch,"ax",@progbits
  11               		.weak	port_switch
  13               	port_switch:
  14               	.LFB106:
  15               		.file 1 "os/rt/ports/AVR/chcore.c"
   1:os/rt/ports/AVR/chcore.c **** /*
   2:os/rt/ports/AVR/chcore.c ****     ChibiOS - Copyright (C) 2006..2015 Giovanni Di Sirio.
   3:os/rt/ports/AVR/chcore.c **** 
   4:os/rt/ports/AVR/chcore.c ****     This file is part of ChibiOS.
   5:os/rt/ports/AVR/chcore.c **** 
   6:os/rt/ports/AVR/chcore.c ****     ChibiOS is free software; you can redistribute it and/or modify
   7:os/rt/ports/AVR/chcore.c ****     it under the terms of the GNU General Public License as published by
   8:os/rt/ports/AVR/chcore.c ****     the Free Software Foundation; either version 3 of the License, or
   9:os/rt/ports/AVR/chcore.c ****     (at your option) any later version.
  10:os/rt/ports/AVR/chcore.c **** 
  11:os/rt/ports/AVR/chcore.c ****     ChibiOS is distributed in the hope that it will be useful,
  12:os/rt/ports/AVR/chcore.c ****     but WITHOUT ANY WARRANTY; without even the implied warranty of
  13:os/rt/ports/AVR/chcore.c ****     MERCHANTABILITY or FITNESS FOR A PARTICULAR PURPOSE.  See the
  14:os/rt/ports/AVR/chcore.c ****     GNU General Public License for more details.
  15:os/rt/ports/AVR/chcore.c **** 
  16:os/rt/ports/AVR/chcore.c ****     You should have received a copy of the GNU General Public License
  17:os/rt/ports/AVR/chcore.c ****     along with this program.  If not, see <http://www.gnu.org/licenses/>.
  18:os/rt/ports/AVR/chcore.c **** */
  19:os/rt/ports/AVR/chcore.c **** 
  20:os/rt/ports/AVR/chcore.c **** /**
  21:os/rt/ports/AVR/chcore.c ****  * @file    AVR/chcore.c
  22:os/rt/ports/AVR/chcore.c ****  * @brief   AVR architecture port code.
  23:os/rt/ports/AVR/chcore.c ****  *
  24:os/rt/ports/AVR/chcore.c ****  * @addtogroup AVR_CORE
  25:os/rt/ports/AVR/chcore.c ****  * @{
  26:os/rt/ports/AVR/chcore.c ****  */
  27:os/rt/ports/AVR/chcore.c **** 
  28:os/rt/ports/AVR/chcore.c **** #include "ch.h"
  29:os/rt/ports/AVR/chcore.c **** 
  30:os/rt/ports/AVR/chcore.c **** /**
  31:os/rt/ports/AVR/chcore.c ****  * @brief   Performs a context switch between two threads.
  32:os/rt/ports/AVR/chcore.c ****  * @details This is the most critical code in any port, this function
  33:os/rt/ports/AVR/chcore.c ****  *          is responsible for the context switch between 2 threads.
  34:os/rt/ports/AVR/chcore.c ****  * @note    The implementation of this code affects <b>directly</b> the context
  35:os/rt/ports/AVR/chcore.c ****  *          switch performance so optimize here as much as you can.
  36:os/rt/ports/AVR/chcore.c ****  * @note    The function is declared as a weak symbol, it is possible to
  37:os/rt/ports/AVR/chcore.c ****  *          redefine it in your application code.
  38:os/rt/ports/AVR/chcore.c ****  *
  39:os/rt/ports/AVR/chcore.c ****  * @param[in] ntp       the thread to be switched in
  40:os/rt/ports/AVR/chcore.c ****  * @param[in] otp       the thread to be switched out
  41:os/rt/ports/AVR/chcore.c ****  */
  42:os/rt/ports/AVR/chcore.c **** #if !defined(__DOXYGEN__)
  43:os/rt/ports/AVR/chcore.c **** __attribute__((naked, weak))
  44:os/rt/ports/AVR/chcore.c **** #endif
  45:os/rt/ports/AVR/chcore.c **** void port_switch(thread_t *ntp, thread_t *otp) {
  16               		.loc 1 45 0
  17               		.cfi_startproc
  18               	.LVL0:
  19               	/* prologue: naked */
  20               	/* frame size = 0 */
  21               	/* stack size = 0 */
  22               	.L__stack_usage = 0
  46:os/rt/ports/AVR/chcore.c **** 
  47:os/rt/ports/AVR/chcore.c ****   asm volatile ("push    r2");
  23               		.loc 1 47 0
  24               	/* #APP */
  25               	 ;  47 "os/rt/ports/AVR/chcore.c" 1
  26 0000 2F92      		push    r2
  27               	 ;  0 "" 2
  48:os/rt/ports/AVR/chcore.c ****   asm volatile ("push    r3");
  28               		.loc 1 48 0
  29               	 ;  48 "os/rt/ports/AVR/chcore.c" 1
  30 0002 3F92      		push    r3
  31               	 ;  0 "" 2
  49:os/rt/ports/AVR/chcore.c ****   asm volatile ("push    r4");
  32               		.loc 1 49 0
  33               	 ;  49 "os/rt/ports/AVR/chcore.c" 1
  34 0004 4F92      		push    r4
  35               	 ;  0 "" 2
  50:os/rt/ports/AVR/chcore.c ****   asm volatile ("push    r5");
  36               		.loc 1 50 0
  37               	 ;  50 "os/rt/ports/AVR/chcore.c" 1
  38 0006 5F92      		push    r5
  39               	 ;  0 "" 2
  51:os/rt/ports/AVR/chcore.c ****   asm volatile ("push    r6");
  40               		.loc 1 51 0
  41               	 ;  51 "os/rt/ports/AVR/chcore.c" 1
  42 0008 6F92      		push    r6
  43               	 ;  0 "" 2
  52:os/rt/ports/AVR/chcore.c ****   asm volatile ("push    r7");
  44               		.loc 1 52 0
  45               	 ;  52 "os/rt/ports/AVR/chcore.c" 1
  46 000a 7F92      		push    r7
  47               	 ;  0 "" 2
  53:os/rt/ports/AVR/chcore.c ****   asm volatile ("push    r8");
  48               		.loc 1 53 0
  49               	 ;  53 "os/rt/ports/AVR/chcore.c" 1
  50 000c 8F92      		push    r8
  51               	 ;  0 "" 2
  54:os/rt/ports/AVR/chcore.c ****   asm volatile ("push    r9");
  52               		.loc 1 54 0
  53               	 ;  54 "os/rt/ports/AVR/chcore.c" 1
  54 000e 9F92      		push    r9
  55               	 ;  0 "" 2
  55:os/rt/ports/AVR/chcore.c ****   asm volatile ("push    r10");
  56               		.loc 1 55 0
  57               	 ;  55 "os/rt/ports/AVR/chcore.c" 1
  58 0010 AF92      		push    r10
  59               	 ;  0 "" 2
  56:os/rt/ports/AVR/chcore.c ****   asm volatile ("push    r11");
  60               		.loc 1 56 0
  61               	 ;  56 "os/rt/ports/AVR/chcore.c" 1
  62 0012 BF92      		push    r11
  63               	 ;  0 "" 2
  57:os/rt/ports/AVR/chcore.c ****   asm volatile ("push    r12");
  64               		.loc 1 57 0
  65               	 ;  57 "os/rt/ports/AVR/chcore.c" 1
  66 0014 CF92      		push    r12
  67               	 ;  0 "" 2
  58:os/rt/ports/AVR/chcore.c ****   asm volatile ("push    r13");
  68               		.loc 1 58 0
  69               	 ;  58 "os/rt/ports/AVR/chcore.c" 1
  70 0016 DF92      		push    r13
  71               	 ;  0 "" 2
  59:os/rt/ports/AVR/chcore.c ****   asm volatile ("push    r14");
  72               		.loc 1 59 0
  73               	 ;  59 "os/rt/ports/AVR/chcore.c" 1
  74 0018 EF92      		push    r14
  75               	 ;  0 "" 2
  60:os/rt/ports/AVR/chcore.c ****   asm volatile ("push    r15");
  76               		.loc 1 60 0
  77               	 ;  60 "os/rt/ports/AVR/chcore.c" 1
  78 001a FF92      		push    r15
  79               	 ;  0 "" 2
  61:os/rt/ports/AVR/chcore.c ****   asm volatile ("push    r16");
  80               		.loc 1 61 0
  81               	 ;  61 "os/rt/ports/AVR/chcore.c" 1
  82 001c 0F93      		push    r16
  83               	 ;  0 "" 2
  62:os/rt/ports/AVR/chcore.c ****   asm volatile ("push    r17");
  84               		.loc 1 62 0
  85               	 ;  62 "os/rt/ports/AVR/chcore.c" 1
  86 001e 1F93      		push    r17
  87               	 ;  0 "" 2
  63:os/rt/ports/AVR/chcore.c ****   asm volatile ("push    r28");
  88               		.loc 1 63 0
  89               	 ;  63 "os/rt/ports/AVR/chcore.c" 1
  90 0020 CF93      		push    r28
  91               	 ;  0 "" 2
  64:os/rt/ports/AVR/chcore.c ****   asm volatile ("push    r29");
  92               		.loc 1 64 0
  93               	 ;  64 "os/rt/ports/AVR/chcore.c" 1
  94 0022 DF93      		push    r29
  95               	 ;  0 "" 2
  65:os/rt/ports/AVR/chcore.c **** 
  66:os/rt/ports/AVR/chcore.c ****   asm volatile ("movw    r30, r22");
  96               		.loc 1 66 0
  97               	 ;  66 "os/rt/ports/AVR/chcore.c" 1
  98 0024 FB01      		movw    r30, r22
  99               	 ;  0 "" 2
  67:os/rt/ports/AVR/chcore.c ****   asm volatile ("in      r0, 0x3d");
 100               		.loc 1 67 0
 101               	 ;  67 "os/rt/ports/AVR/chcore.c" 1
 102 0026 0DB6      		in      r0, 0x3d
 103               	 ;  0 "" 2
  68:os/rt/ports/AVR/chcore.c ****   asm volatile ("std     Z+5, r0");
 104               		.loc 1 68 0
 105               	 ;  68 "os/rt/ports/AVR/chcore.c" 1
 106 0028 0582      		std     Z+5, r0
 107               	 ;  0 "" 2
  69:os/rt/ports/AVR/chcore.c ****   asm volatile ("in      r0, 0x3e");
 108               		.loc 1 69 0
 109               	 ;  69 "os/rt/ports/AVR/chcore.c" 1
 110 002a 0EB6      		in      r0, 0x3e
 111               	 ;  0 "" 2
  70:os/rt/ports/AVR/chcore.c ****   asm volatile ("std     Z+6, r0");
 112               		.loc 1 70 0
 113               	 ;  70 "os/rt/ports/AVR/chcore.c" 1
 114 002c 0682      		std     Z+6, r0
 115               	 ;  0 "" 2
  71:os/rt/ports/AVR/chcore.c **** 
  72:os/rt/ports/AVR/chcore.c ****   asm volatile ("movw    r30, r24");
 116               		.loc 1 72 0
 117               	 ;  72 "os/rt/ports/AVR/chcore.c" 1
 118 002e FC01      		movw    r30, r24
 119               	 ;  0 "" 2
  73:os/rt/ports/AVR/chcore.c ****   asm volatile ("ldd     r0, Z+5");
 120               		.loc 1 73 0
 121               	 ;  73 "os/rt/ports/AVR/chcore.c" 1
 122 0030 0580      		ldd     r0, Z+5
 123               	 ;  0 "" 2
  74:os/rt/ports/AVR/chcore.c ****   asm volatile ("out     0x3d, r0");
 124               		.loc 1 74 0
 125               	 ;  74 "os/rt/ports/AVR/chcore.c" 1
 126 0032 0DBE      		out     0x3d, r0
 127               	 ;  0 "" 2
  75:os/rt/ports/AVR/chcore.c ****   asm volatile ("ldd     r0, Z+6");
 128               		.loc 1 75 0
 129               	 ;  75 "os/rt/ports/AVR/chcore.c" 1
 130 0034 0680      		ldd     r0, Z+6
 131               	 ;  0 "" 2
  76:os/rt/ports/AVR/chcore.c ****   asm volatile ("out     0x3e, r0");
 132               		.loc 1 76 0
 133               	 ;  76 "os/rt/ports/AVR/chcore.c" 1
 134 0036 0EBE      		out     0x3e, r0
 135               	 ;  0 "" 2
  77:os/rt/ports/AVR/chcore.c **** 
  78:os/rt/ports/AVR/chcore.c ****   asm volatile ("pop     r29");
 136               		.loc 1 78 0
 137               	 ;  78 "os/rt/ports/AVR/chcore.c" 1
 138 0038 DF91      		pop     r29
 139               	 ;  0 "" 2
  79:os/rt/ports/AVR/chcore.c ****   asm volatile ("pop     r28");
 140               		.loc 1 79 0
 141               	 ;  79 "os/rt/ports/AVR/chcore.c" 1
 142 003a CF91      		pop     r28
 143               	 ;  0 "" 2
  80:os/rt/ports/AVR/chcore.c ****   asm volatile ("pop     r17");
 144               		.loc 1 80 0
 145               	 ;  80 "os/rt/ports/AVR/chcore.c" 1
 146 003c 1F91      		pop     r17
 147               	 ;  0 "" 2
  81:os/rt/ports/AVR/chcore.c ****   asm volatile ("pop     r16");
 148               		.loc 1 81 0
 149               	 ;  81 "os/rt/ports/AVR/chcore.c" 1
 150 003e 0F91      		pop     r16
 151               	 ;  0 "" 2
  82:os/rt/ports/AVR/chcore.c ****   asm volatile ("pop     r15");
 152               		.loc 1 82 0
 153               	 ;  82 "os/rt/ports/AVR/chcore.c" 1
 154 0040 FF90      		pop     r15
 155               	 ;  0 "" 2
  83:os/rt/ports/AVR/chcore.c ****   asm volatile ("pop     r14");
 156               		.loc 1 83 0
 157               	 ;  83 "os/rt/ports/AVR/chcore.c" 1
 158 0042 EF90      		pop     r14
 159               	 ;  0 "" 2
  84:os/rt/ports/AVR/chcore.c ****   asm volatile ("pop     r13");
 160               		.loc 1 84 0
 161               	 ;  84 "os/rt/ports/AVR/chcore.c" 1
 162 0044 DF90      		pop     r13
 163               	 ;  0 "" 2
  85:os/rt/ports/AVR/chcore.c ****   asm volatile ("pop     r12");
 164               		.loc 1 85 0
 165               	 ;  85 "os/rt/ports/AVR/chcore.c" 1
 166 0046 CF90      		pop     r12
 167               	 ;  0 "" 2
  86:os/rt/ports/AVR/chcore.c ****   asm volatile ("pop     r11");
 168               		.loc 1 86 0
 169               	 ;  86 "os/rt/ports/AVR/chcore.c" 1
 170 0048 BF90      		pop     r11
 171               	 ;  0 "" 2
  87:os/rt/ports/AVR/chcore.c ****   asm volatile ("pop     r10");
 172               		.loc 1 87 0
 173               	 ;  87 "os/rt/ports/AVR/chcore.c" 1
 174 004a AF90      		pop     r10
 175               	 ;  0 "" 2
  88:os/rt/ports/AVR/chcore.c ****   asm volatile ("pop     r9");
 176               		.loc 1 88 0
 177               	 ;  88 "os/rt/ports/AVR/chcore.c" 1
 178 004c 9F90      		pop     r9
 179               	 ;  0 "" 2
  89:os/rt/ports/AVR/chcore.c ****   asm volatile ("pop     r8");
 180               		.loc 1 89 0
 181               	 ;  89 "os/rt/ports/AVR/chcore.c" 1
 182 004e 8F90      		pop     r8
 183               	 ;  0 "" 2
  90:os/rt/ports/AVR/chcore.c ****   asm volatile ("pop     r7");
 184               		.loc 1 90 0
 185               	 ;  90 "os/rt/ports/AVR/chcore.c" 1
 186 0050 7F90      		pop     r7
 187               	 ;  0 "" 2
  91:os/rt/ports/AVR/chcore.c ****   asm volatile ("pop     r6");
 188               		.loc 1 91 0
 189               	 ;  91 "os/rt/ports/AVR/chcore.c" 1
 190 0052 6F90      		pop     r6
 191               	 ;  0 "" 2
  92:os/rt/ports/AVR/chcore.c ****   asm volatile ("pop     r5");
 192               		.loc 1 92 0
 193               	 ;  92 "os/rt/ports/AVR/chcore.c" 1
 194 0054 5F90      		pop     r5
 195               	 ;  0 "" 2
  93:os/rt/ports/AVR/chcore.c ****   asm volatile ("pop     r4");
 196               		.loc 1 93 0
 197               	 ;  93 "os/rt/ports/AVR/chcore.c" 1
 198 0056 4F90      		pop     r4
 199               	 ;  0 "" 2
  94:os/rt/ports/AVR/chcore.c ****   asm volatile ("pop     r3");
 200               		.loc 1 94 0
 201               	 ;  94 "os/rt/ports/AVR/chcore.c" 1
 202 0058 3F90      		pop     r3
 203               	 ;  0 "" 2
  95:os/rt/ports/AVR/chcore.c ****   asm volatile ("pop     r2");
 204               		.loc 1 95 0
 205               	 ;  95 "os/rt/ports/AVR/chcore.c" 1
 206 005a 2F90      		pop     r2
 207               	 ;  0 "" 2
  96:os/rt/ports/AVR/chcore.c ****   asm volatile ("ret");
 208               		.loc 1 96 0
 209               	 ;  96 "os/rt/ports/AVR/chcore.c" 1
 210 005c 0895      		ret
 211               	 ;  0 "" 2
 212               	/* epilogue start */
  97:os/rt/ports/AVR/chcore.c **** }
 213               		.loc 1 97 0
 214               	/* #NOAPP */
 215               		.cfi_endproc
 216               	.LFE106:
 218               		.section	.text.port_halt,"ax",@progbits
 219               		.weak	port_halt
 221               	port_halt:
 222               	.LFB107:
  98:os/rt/ports/AVR/chcore.c **** 
  99:os/rt/ports/AVR/chcore.c **** /**
 100:os/rt/ports/AVR/chcore.c ****  * @brief   Halts the system.
 101:os/rt/ports/AVR/chcore.c ****  * @details This function is invoked by the operating system when an
 102:os/rt/ports/AVR/chcore.c ****  *          unrecoverable error is detected (for example because a programming
 103:os/rt/ports/AVR/chcore.c ****  *          error in the application code that triggers an assertion while in
 104:os/rt/ports/AVR/chcore.c ****  *          debug mode).
 105:os/rt/ports/AVR/chcore.c ****  * @note    The function is declared as a weak symbol, it is possible to
 106:os/rt/ports/AVR/chcore.c ****  *          redefine it in your application code.
 107:os/rt/ports/AVR/chcore.c ****  */
 108:os/rt/ports/AVR/chcore.c **** #if !defined(__DOXYGEN__)
 109:os/rt/ports/AVR/chcore.c **** __attribute__((weak))
 110:os/rt/ports/AVR/chcore.c **** #endif
 111:os/rt/ports/AVR/chcore.c **** void port_halt(void) {
 223               		.loc 1 111 0
 224               		.cfi_startproc
 225               	/* prologue: function */
 226               	/* frame size = 0 */
 227               	/* stack size = 0 */
 228               	.L__stack_usage = 0
 112:os/rt/ports/AVR/chcore.c **** 
 113:os/rt/ports/AVR/chcore.c ****   port_disable();
 229               		.loc 1 113 0
 230               	/* #APP */
 231               	 ;  113 "os/rt/ports/AVR/chcore.c" 1
 232 0000 F894      		cli
 233               	 ;  0 "" 2
 234               	/* #NOAPP */
 235               	.L3:
 236 0002 00C0      		rjmp .L3
 237               		.cfi_endproc
 238               	.LFE107:
 240               		.section	.text._port_thread_start,"ax",@progbits
 241               	.global	_port_thread_start
 243               	_port_thread_start:
 244               	.LFB108:
 114:os/rt/ports/AVR/chcore.c ****   while (TRUE) {
 115:os/rt/ports/AVR/chcore.c ****   }
 116:os/rt/ports/AVR/chcore.c **** }
 117:os/rt/ports/AVR/chcore.c **** 
 118:os/rt/ports/AVR/chcore.c **** /**
 119:os/rt/ports/AVR/chcore.c ****  * @brief   Start a thread by invoking its work function.
 120:os/rt/ports/AVR/chcore.c ****  * @details If the work function returns @p chThdExit() is automatically
 121:os/rt/ports/AVR/chcore.c ****  *          invoked.
 122:os/rt/ports/AVR/chcore.c ****  */
 123:os/rt/ports/AVR/chcore.c **** void _port_thread_start(void) {
 245               		.loc 1 123 0
 246               		.cfi_startproc
 247               	/* prologue: function */
 248               	/* frame size = 0 */
 249               	/* stack size = 0 */
 250               	.L__stack_usage = 0
 251               	.LBB4:
 252               	.LBB5:
 253               		.file 2 "./os/rt/include/chsys.h"
   1:./os/rt/include/chsys.h **** /*
   2:./os/rt/include/chsys.h ****     ChibiOS - Copyright (C) 2006..2015 Giovanni Di Sirio.
   3:./os/rt/include/chsys.h **** 
   4:./os/rt/include/chsys.h ****     This file is part of ChibiOS.
   5:./os/rt/include/chsys.h **** 
   6:./os/rt/include/chsys.h ****     ChibiOS is free software; you can redistribute it and/or modify
   7:./os/rt/include/chsys.h ****     it under the terms of the GNU General Public License as published by
   8:./os/rt/include/chsys.h ****     the Free Software Foundation; either version 3 of the License, or
   9:./os/rt/include/chsys.h ****     (at your option) any later version.
  10:./os/rt/include/chsys.h **** 
  11:./os/rt/include/chsys.h ****     ChibiOS is distributed in the hope that it will be useful,
  12:./os/rt/include/chsys.h ****     but WITHOUT ANY WARRANTY; without even the implied warranty of
  13:./os/rt/include/chsys.h ****     MERCHANTABILITY or FITNESS FOR A PARTICULAR PURPOSE.  See the
  14:./os/rt/include/chsys.h ****     GNU General Public License for more details.
  15:./os/rt/include/chsys.h **** 
  16:./os/rt/include/chsys.h ****     You should have received a copy of the GNU General Public License
  17:./os/rt/include/chsys.h ****     along with this program.  If not, see <http://www.gnu.org/licenses/>.
  18:./os/rt/include/chsys.h **** */
  19:./os/rt/include/chsys.h **** 
  20:./os/rt/include/chsys.h **** /**
  21:./os/rt/include/chsys.h ****  * @file    chsys.h
  22:./os/rt/include/chsys.h ****  * @brief   System related macros and structures.
  23:./os/rt/include/chsys.h ****  *
  24:./os/rt/include/chsys.h ****  * @addtogroup system
  25:./os/rt/include/chsys.h ****  * @{
  26:./os/rt/include/chsys.h ****  */
  27:./os/rt/include/chsys.h **** 
  28:./os/rt/include/chsys.h **** #ifndef _CHSYS_H_
  29:./os/rt/include/chsys.h **** #define _CHSYS_H_
  30:./os/rt/include/chsys.h **** 
  31:./os/rt/include/chsys.h **** /*lint -sem(chSysHalt, r_no)*/
  32:./os/rt/include/chsys.h **** 
  33:./os/rt/include/chsys.h **** /*===========================================================================*/
  34:./os/rt/include/chsys.h **** /* Module constants.                                                         */
  35:./os/rt/include/chsys.h **** /*===========================================================================*/
  36:./os/rt/include/chsys.h **** 
  37:./os/rt/include/chsys.h **** /**
  38:./os/rt/include/chsys.h ****  * @name    Masks of executable integrity checks.
  39:./os/rt/include/chsys.h ****  * @{
  40:./os/rt/include/chsys.h ****  */
  41:./os/rt/include/chsys.h **** #define CH_INTEGRITY_RLIST                  1U
  42:./os/rt/include/chsys.h **** #define CH_INTEGRITY_VTLIST                 2U
  43:./os/rt/include/chsys.h **** #define CH_INTEGRITY_REGISTRY               4U
  44:./os/rt/include/chsys.h **** #define CH_INTEGRITY_PORT                   8U
  45:./os/rt/include/chsys.h **** /** @} */
  46:./os/rt/include/chsys.h **** 
  47:./os/rt/include/chsys.h **** /*===========================================================================*/
  48:./os/rt/include/chsys.h **** /* Module pre-compile time settings.                                         */
  49:./os/rt/include/chsys.h **** /*===========================================================================*/
  50:./os/rt/include/chsys.h **** 
  51:./os/rt/include/chsys.h **** /*===========================================================================*/
  52:./os/rt/include/chsys.h **** /* Derived constants and error checks.                                       */
  53:./os/rt/include/chsys.h **** /*===========================================================================*/
  54:./os/rt/include/chsys.h **** 
  55:./os/rt/include/chsys.h **** /*===========================================================================*/
  56:./os/rt/include/chsys.h **** /* Module data structures and types.                                         */
  57:./os/rt/include/chsys.h **** /*===========================================================================*/
  58:./os/rt/include/chsys.h **** 
  59:./os/rt/include/chsys.h **** /*===========================================================================*/
  60:./os/rt/include/chsys.h **** /* Module macros.                                                            */
  61:./os/rt/include/chsys.h **** /*===========================================================================*/
  62:./os/rt/include/chsys.h **** 
  63:./os/rt/include/chsys.h **** /**
  64:./os/rt/include/chsys.h ****  * @name    ISRs abstraction macros
  65:./os/rt/include/chsys.h ****  */
  66:./os/rt/include/chsys.h **** /**
  67:./os/rt/include/chsys.h ****  * @brief   Priority level validation macro.
  68:./os/rt/include/chsys.h ****  * @details This macro determines if the passed value is a valid priority
  69:./os/rt/include/chsys.h ****  *          level for the underlying architecture.
  70:./os/rt/include/chsys.h ****  *
  71:./os/rt/include/chsys.h ****  * @param[in] prio      the priority level
  72:./os/rt/include/chsys.h ****  * @return              Priority range result.
  73:./os/rt/include/chsys.h ****  * @retval false        if the priority is invalid or if the architecture
  74:./os/rt/include/chsys.h ****  *                      does not support priorities.
  75:./os/rt/include/chsys.h ****  * @retval true         if the priority is valid.
  76:./os/rt/include/chsys.h ****  */
  77:./os/rt/include/chsys.h **** #if defined(PORT_IRQ_IS_VALID_PRIORITY) || defined(__DOXYGEN__)
  78:./os/rt/include/chsys.h **** #define CH_IRQ_IS_VALID_PRIORITY(prio)                                      \
  79:./os/rt/include/chsys.h ****   PORT_IRQ_IS_VALID_PRIORITY(prio)
  80:./os/rt/include/chsys.h **** #else
  81:./os/rt/include/chsys.h **** #define CH_IRQ_IS_VALID_PRIORITY(prio) false
  82:./os/rt/include/chsys.h **** #endif
  83:./os/rt/include/chsys.h **** 
  84:./os/rt/include/chsys.h **** /**
  85:./os/rt/include/chsys.h ****  * @brief   Priority level validation macro.
  86:./os/rt/include/chsys.h ****  * @details This macro determines if the passed value is a valid priority
  87:./os/rt/include/chsys.h ****  *          level that cannot preempt the kernel critical zone.
  88:./os/rt/include/chsys.h ****  *
  89:./os/rt/include/chsys.h ****  * @param[in] prio      the priority level
  90:./os/rt/include/chsys.h ****  * @return              Priority range result.
  91:./os/rt/include/chsys.h ****  * @retval false        if the priority is invalid or if the architecture
  92:./os/rt/include/chsys.h ****  *                      does not support priorities.
  93:./os/rt/include/chsys.h ****  * @retval true         if the priority is valid.
  94:./os/rt/include/chsys.h ****  */
  95:./os/rt/include/chsys.h **** #if defined(PORT_IRQ_IS_VALID_KERNEL_PRIORITY) || defined(__DOXYGEN__)
  96:./os/rt/include/chsys.h **** #define CH_IRQ_IS_VALID_KERNEL_PRIORITY(prio)                               \
  97:./os/rt/include/chsys.h ****   PORT_IRQ_IS_VALID_KERNEL_PRIORITY(prio)
  98:./os/rt/include/chsys.h **** #else
  99:./os/rt/include/chsys.h **** #define CH_IRQ_IS_VALID_KERNEL_PRIORITY(prio) false
 100:./os/rt/include/chsys.h **** #endif
 101:./os/rt/include/chsys.h **** 
 102:./os/rt/include/chsys.h **** /**
 103:./os/rt/include/chsys.h ****  * @brief   IRQ handler enter code.
 104:./os/rt/include/chsys.h ****  * @note    Usually IRQ handlers functions are also declared naked.
 105:./os/rt/include/chsys.h ****  * @note    On some architectures this macro can be empty.
 106:./os/rt/include/chsys.h ****  *
 107:./os/rt/include/chsys.h ****  * @special
 108:./os/rt/include/chsys.h ****  */
 109:./os/rt/include/chsys.h **** #define CH_IRQ_PROLOGUE()                                                   \
 110:./os/rt/include/chsys.h ****   PORT_IRQ_PROLOGUE();                                                      \
 111:./os/rt/include/chsys.h ****   _stats_increase_irq();                                                    \
 112:./os/rt/include/chsys.h ****   _dbg_check_enter_isr()
 113:./os/rt/include/chsys.h **** 
 114:./os/rt/include/chsys.h **** /**
 115:./os/rt/include/chsys.h ****  * @brief   IRQ handler exit code.
 116:./os/rt/include/chsys.h ****  * @note    Usually IRQ handlers function are also declared naked.
 117:./os/rt/include/chsys.h ****  * @note    This macro usually performs the final reschedule by using
 118:./os/rt/include/chsys.h ****  *          @p chSchIsPreemptionRequired() and @p chSchDoReschedule().
 119:./os/rt/include/chsys.h ****  *
 120:./os/rt/include/chsys.h ****  * @special
 121:./os/rt/include/chsys.h ****  */
 122:./os/rt/include/chsys.h **** #define CH_IRQ_EPILOGUE()                                                   \
 123:./os/rt/include/chsys.h ****   _dbg_check_leave_isr();                                                   \
 124:./os/rt/include/chsys.h ****   PORT_IRQ_EPILOGUE()
 125:./os/rt/include/chsys.h **** 
 126:./os/rt/include/chsys.h **** /**
 127:./os/rt/include/chsys.h ****  * @brief   Standard normal IRQ handler declaration.
 128:./os/rt/include/chsys.h ****  * @note    @p id can be a function name or a vector number depending on the
 129:./os/rt/include/chsys.h ****  *          port implementation.
 130:./os/rt/include/chsys.h ****  *
 131:./os/rt/include/chsys.h ****  * @special
 132:./os/rt/include/chsys.h ****  */
 133:./os/rt/include/chsys.h **** #define CH_IRQ_HANDLER(id) PORT_IRQ_HANDLER(id)
 134:./os/rt/include/chsys.h **** /** @} */
 135:./os/rt/include/chsys.h **** 
 136:./os/rt/include/chsys.h **** /**
 137:./os/rt/include/chsys.h ****  * @name    Fast ISRs abstraction macros
 138:./os/rt/include/chsys.h ****  */
 139:./os/rt/include/chsys.h **** /**
 140:./os/rt/include/chsys.h ****  * @brief   Standard fast IRQ handler declaration.
 141:./os/rt/include/chsys.h ****  * @note    @p id can be a function name or a vector number depending on the
 142:./os/rt/include/chsys.h ****  *          port implementation.
 143:./os/rt/include/chsys.h ****  * @note    Not all architectures support fast interrupts.
 144:./os/rt/include/chsys.h ****  *
 145:./os/rt/include/chsys.h ****  * @special
 146:./os/rt/include/chsys.h ****  */
 147:./os/rt/include/chsys.h **** #define CH_FAST_IRQ_HANDLER(id) PORT_FAST_IRQ_HANDLER(id)
 148:./os/rt/include/chsys.h **** /** @} */
 149:./os/rt/include/chsys.h **** 
 150:./os/rt/include/chsys.h **** /**
 151:./os/rt/include/chsys.h ****  * @name    Time conversion utilities for the realtime counter
 152:./os/rt/include/chsys.h ****  * @{
 153:./os/rt/include/chsys.h ****  */
 154:./os/rt/include/chsys.h **** /**
 155:./os/rt/include/chsys.h ****  * @brief   Seconds to realtime counter.
 156:./os/rt/include/chsys.h ****  * @details Converts from seconds to realtime counter cycles.
 157:./os/rt/include/chsys.h ****  * @note    The macro assumes that @p freq >= @p 1.
 158:./os/rt/include/chsys.h ****  *
 159:./os/rt/include/chsys.h ****  * @param[in] freq      clock frequency, in Hz, of the realtime counter
 160:./os/rt/include/chsys.h ****  * @param[in] sec       number of seconds
 161:./os/rt/include/chsys.h ****  * @return              The number of cycles.
 162:./os/rt/include/chsys.h ****  *
 163:./os/rt/include/chsys.h ****  * @api
 164:./os/rt/include/chsys.h ****  */
 165:./os/rt/include/chsys.h **** #define S2RTC(freq, sec) ((freq) * (sec))
 166:./os/rt/include/chsys.h **** 
 167:./os/rt/include/chsys.h **** /**
 168:./os/rt/include/chsys.h ****  * @brief   Milliseconds to realtime counter.
 169:./os/rt/include/chsys.h ****  * @details Converts from milliseconds to realtime counter cycles.
 170:./os/rt/include/chsys.h ****  * @note    The result is rounded upward to the next millisecond boundary.
 171:./os/rt/include/chsys.h ****  * @note    The macro assumes that @p freq >= @p 1000.
 172:./os/rt/include/chsys.h ****  *
 173:./os/rt/include/chsys.h ****  * @param[in] freq      clock frequency, in Hz, of the realtime counter
 174:./os/rt/include/chsys.h ****  * @param[in] msec      number of milliseconds
 175:./os/rt/include/chsys.h ****  * @return              The number of cycles.
 176:./os/rt/include/chsys.h ****  *
 177:./os/rt/include/chsys.h ****  * @api
 178:./os/rt/include/chsys.h ****  */
 179:./os/rt/include/chsys.h **** #define MS2RTC(freq, msec) (rtcnt_t)((((freq) + 999UL) / 1000UL) * (msec))
 180:./os/rt/include/chsys.h **** 
 181:./os/rt/include/chsys.h **** /**
 182:./os/rt/include/chsys.h ****  * @brief   Microseconds to realtime counter.
 183:./os/rt/include/chsys.h ****  * @details Converts from microseconds to realtime counter cycles.
 184:./os/rt/include/chsys.h ****  * @note    The result is rounded upward to the next microsecond boundary.
 185:./os/rt/include/chsys.h ****  * @note    The macro assumes that @p freq >= @p 1000000.
 186:./os/rt/include/chsys.h ****  *
 187:./os/rt/include/chsys.h ****  * @param[in] freq      clock frequency, in Hz, of the realtime counter
 188:./os/rt/include/chsys.h ****  * @param[in] usec      number of microseconds
 189:./os/rt/include/chsys.h ****  * @return              The number of cycles.
 190:./os/rt/include/chsys.h ****  *
 191:./os/rt/include/chsys.h ****  * @api
 192:./os/rt/include/chsys.h ****  */
 193:./os/rt/include/chsys.h **** #define US2RTC(freq, usec) (rtcnt_t)((((freq) + 999999UL) / 1000000UL) * (usec))
 194:./os/rt/include/chsys.h **** 
 195:./os/rt/include/chsys.h **** /**
 196:./os/rt/include/chsys.h ****  * @brief   Realtime counter cycles to seconds.
 197:./os/rt/include/chsys.h ****  * @details Converts from realtime counter cycles number to seconds.
 198:./os/rt/include/chsys.h ****  * @note    The result is rounded up to the next second boundary.
 199:./os/rt/include/chsys.h ****  * @note    The macro assumes that @p freq >= @p 1.
 200:./os/rt/include/chsys.h ****  *
 201:./os/rt/include/chsys.h ****  * @param[in] freq      clock frequency, in Hz, of the realtime counter
 202:./os/rt/include/chsys.h ****  * @param[in] n         number of cycles
 203:./os/rt/include/chsys.h ****  * @return              The number of seconds.
 204:./os/rt/include/chsys.h ****  *
 205:./os/rt/include/chsys.h ****  * @api
 206:./os/rt/include/chsys.h ****  */
 207:./os/rt/include/chsys.h **** #define RTC2S(freq, n) ((((n) - 1UL) / (freq)) + 1UL)
 208:./os/rt/include/chsys.h **** 
 209:./os/rt/include/chsys.h **** /**
 210:./os/rt/include/chsys.h ****  * @brief   Realtime counter cycles to milliseconds.
 211:./os/rt/include/chsys.h ****  * @details Converts from realtime counter cycles number to milliseconds.
 212:./os/rt/include/chsys.h ****  * @note    The result is rounded up to the next millisecond boundary.
 213:./os/rt/include/chsys.h ****  * @note    The macro assumes that @p freq >= @p 1000.
 214:./os/rt/include/chsys.h ****  *
 215:./os/rt/include/chsys.h ****  * @param[in] freq      clock frequency, in Hz, of the realtime counter
 216:./os/rt/include/chsys.h ****  * @param[in] n         number of cycles
 217:./os/rt/include/chsys.h ****  * @return              The number of milliseconds.
 218:./os/rt/include/chsys.h ****  *
 219:./os/rt/include/chsys.h ****  * @api
 220:./os/rt/include/chsys.h ****  */
 221:./os/rt/include/chsys.h **** #define RTC2MS(freq, n) ((((n) - 1UL) / ((freq) / 1000UL)) + 1UL)
 222:./os/rt/include/chsys.h **** 
 223:./os/rt/include/chsys.h **** /**
 224:./os/rt/include/chsys.h ****  * @brief   Realtime counter cycles to microseconds.
 225:./os/rt/include/chsys.h ****  * @details Converts from realtime counter cycles number to microseconds.
 226:./os/rt/include/chsys.h ****  * @note    The result is rounded up to the next microsecond boundary.
 227:./os/rt/include/chsys.h ****  * @note    The macro assumes that @p freq >= @p 1000000.
 228:./os/rt/include/chsys.h ****  *
 229:./os/rt/include/chsys.h ****  * @param[in] freq      clock frequency, in Hz, of the realtime counter
 230:./os/rt/include/chsys.h ****  * @param[in] n         number of cycles
 231:./os/rt/include/chsys.h ****  * @return              The number of microseconds.
 232:./os/rt/include/chsys.h ****  *
 233:./os/rt/include/chsys.h ****  * @api
 234:./os/rt/include/chsys.h ****  */
 235:./os/rt/include/chsys.h **** #define RTC2US(freq, n) ((((n) - 1UL) / ((freq) / 1000000UL)) + 1UL)
 236:./os/rt/include/chsys.h **** /** @} */
 237:./os/rt/include/chsys.h **** 
 238:./os/rt/include/chsys.h **** /**
 239:./os/rt/include/chsys.h ****  * @brief   Returns the current value of the system real time counter.
 240:./os/rt/include/chsys.h ****  * @note    This function is only available if the port layer supports the
 241:./os/rt/include/chsys.h ****  *          option @p PORT_SUPPORTS_RT.
 242:./os/rt/include/chsys.h ****  *
 243:./os/rt/include/chsys.h ****  * @return              The value of the system realtime counter of
 244:./os/rt/include/chsys.h ****  *                      type rtcnt_t.
 245:./os/rt/include/chsys.h ****  *
 246:./os/rt/include/chsys.h ****  * @xclass
 247:./os/rt/include/chsys.h ****  */
 248:./os/rt/include/chsys.h **** #if (PORT_SUPPORTS_RT == TRUE) || defined(__DOXYGEN__)
 249:./os/rt/include/chsys.h **** #define chSysGetRealtimeCounterX() (rtcnt_t)port_rt_get_counter_value()
 250:./os/rt/include/chsys.h **** #endif
 251:./os/rt/include/chsys.h **** 
 252:./os/rt/include/chsys.h **** /**
 253:./os/rt/include/chsys.h ****  * @brief   Performs a context switch.
 254:./os/rt/include/chsys.h ****  * @note    Not a user function, it is meant to be invoked by the scheduler
 255:./os/rt/include/chsys.h ****  *          itself or from within the port layer.
 256:./os/rt/include/chsys.h ****  *
 257:./os/rt/include/chsys.h ****  * @param[in] ntp       the thread to be switched in
 258:./os/rt/include/chsys.h ****  * @param[in] otp       the thread to be switched out
 259:./os/rt/include/chsys.h ****  *
 260:./os/rt/include/chsys.h ****  * @special
 261:./os/rt/include/chsys.h ****  */
 262:./os/rt/include/chsys.h **** #define chSysSwitch(ntp, otp) {                                             \
 263:./os/rt/include/chsys.h ****                                                                             \
 264:./os/rt/include/chsys.h ****   _dbg_trace(otp);                                                          \
 265:./os/rt/include/chsys.h ****   _stats_ctxswc(ntp, otp);                                                  \
 266:./os/rt/include/chsys.h ****   CH_CFG_CONTEXT_SWITCH_HOOK(ntp, otp);                                     \
 267:./os/rt/include/chsys.h ****   port_switch(ntp, otp);                                                    \
 268:./os/rt/include/chsys.h **** }
 269:./os/rt/include/chsys.h **** 
 270:./os/rt/include/chsys.h **** /*===========================================================================*/
 271:./os/rt/include/chsys.h **** /* External declarations.                                                    */
 272:./os/rt/include/chsys.h **** /*===========================================================================*/
 273:./os/rt/include/chsys.h **** 
 274:./os/rt/include/chsys.h **** #ifdef __cplusplus
 275:./os/rt/include/chsys.h **** extern "C" {
 276:./os/rt/include/chsys.h **** #endif
 277:./os/rt/include/chsys.h ****   void chSysInit(void);
 278:./os/rt/include/chsys.h ****   void chSysHalt(const char *reason);
 279:./os/rt/include/chsys.h ****   bool chSysIntegrityCheckI(unsigned testmask);
 280:./os/rt/include/chsys.h ****   void chSysTimerHandlerI(void);
 281:./os/rt/include/chsys.h ****   syssts_t chSysGetStatusAndLockX(void);
 282:./os/rt/include/chsys.h ****   void chSysRestoreStatusX(syssts_t sts);
 283:./os/rt/include/chsys.h **** #if PORT_SUPPORTS_RT
 284:./os/rt/include/chsys.h ****   bool chSysIsCounterWithinX(rtcnt_t cnt, rtcnt_t start, rtcnt_t end);
 285:./os/rt/include/chsys.h ****   void chSysPolledDelayX(rtcnt_t cycles);
 286:./os/rt/include/chsys.h **** #endif
 287:./os/rt/include/chsys.h **** #ifdef __cplusplus
 288:./os/rt/include/chsys.h **** }
 289:./os/rt/include/chsys.h **** #endif
 290:./os/rt/include/chsys.h **** 
 291:./os/rt/include/chsys.h **** /*===========================================================================*/
 292:./os/rt/include/chsys.h **** /* Module inline functions.                                                  */
 293:./os/rt/include/chsys.h **** /*===========================================================================*/
 294:./os/rt/include/chsys.h **** 
 295:./os/rt/include/chsys.h **** /**
 296:./os/rt/include/chsys.h ****  * @brief   Raises the system interrupt priority mask to the maximum level.
 297:./os/rt/include/chsys.h ****  * @details All the maskable interrupt sources are disabled regardless their
 298:./os/rt/include/chsys.h ****  *          hardware priority.
 299:./os/rt/include/chsys.h ****  * @note    Do not invoke this API from within a kernel lock.
 300:./os/rt/include/chsys.h ****  *
 301:./os/rt/include/chsys.h ****  * @special
 302:./os/rt/include/chsys.h ****  */
 303:./os/rt/include/chsys.h **** static inline void chSysDisable(void) {
 304:./os/rt/include/chsys.h **** 
 305:./os/rt/include/chsys.h ****   port_disable();
 306:./os/rt/include/chsys.h ****   _dbg_check_disable();
 307:./os/rt/include/chsys.h **** }
 308:./os/rt/include/chsys.h **** 
 309:./os/rt/include/chsys.h **** /**
 310:./os/rt/include/chsys.h ****  * @brief   Raises the system interrupt priority mask to system level.
 311:./os/rt/include/chsys.h ****  * @details The interrupt sources that should not be able to preempt the kernel
 312:./os/rt/include/chsys.h ****  *          are disabled, interrupt sources with higher priority are still
 313:./os/rt/include/chsys.h ****  *          enabled.
 314:./os/rt/include/chsys.h ****  * @note    Do not invoke this API from within a kernel lock.
 315:./os/rt/include/chsys.h ****  * @note    This API is no replacement for @p chSysLock(), the @p chSysLock()
 316:./os/rt/include/chsys.h ****  *          could do more than just disable the interrupts.
 317:./os/rt/include/chsys.h ****  *
 318:./os/rt/include/chsys.h ****  * @special
 319:./os/rt/include/chsys.h ****  */
 320:./os/rt/include/chsys.h **** static inline void chSysSuspend(void) {
 321:./os/rt/include/chsys.h **** 
 322:./os/rt/include/chsys.h ****   port_suspend();
 323:./os/rt/include/chsys.h ****   _dbg_check_suspend();
 324:./os/rt/include/chsys.h **** }
 325:./os/rt/include/chsys.h **** 
 326:./os/rt/include/chsys.h **** /**
 327:./os/rt/include/chsys.h ****  * @brief   Lowers the system interrupt priority mask to user level.
 328:./os/rt/include/chsys.h ****  * @details All the interrupt sources are enabled.
 329:./os/rt/include/chsys.h ****  * @note    Do not invoke this API from within a kernel lock.
 330:./os/rt/include/chsys.h ****  * @note    This API is no replacement for @p chSysUnlock(), the
 331:./os/rt/include/chsys.h ****  *          @p chSysUnlock() could do more than just enable the interrupts.
 332:./os/rt/include/chsys.h ****  *
 333:./os/rt/include/chsys.h ****  * @special
 334:./os/rt/include/chsys.h ****  */
 335:./os/rt/include/chsys.h **** static inline void chSysEnable(void) {
 336:./os/rt/include/chsys.h **** 
 337:./os/rt/include/chsys.h ****   _dbg_check_enable();
 338:./os/rt/include/chsys.h ****   port_enable();
 339:./os/rt/include/chsys.h **** }
 340:./os/rt/include/chsys.h **** 
 341:./os/rt/include/chsys.h **** /**
 342:./os/rt/include/chsys.h ****  * @brief   Enters the kernel lock state.
 343:./os/rt/include/chsys.h ****  *
 344:./os/rt/include/chsys.h ****  * @special
 345:./os/rt/include/chsys.h ****  */
 346:./os/rt/include/chsys.h **** static inline void chSysLock(void)  {
 347:./os/rt/include/chsys.h **** 
 348:./os/rt/include/chsys.h ****   port_lock();
 349:./os/rt/include/chsys.h ****   _stats_start_measure_crit_thd();
 350:./os/rt/include/chsys.h ****   _dbg_check_lock();
 351:./os/rt/include/chsys.h **** }
 352:./os/rt/include/chsys.h **** 
 353:./os/rt/include/chsys.h **** /**
 354:./os/rt/include/chsys.h ****  * @brief   Leaves the kernel lock state.
 355:./os/rt/include/chsys.h ****  *
 356:./os/rt/include/chsys.h ****  * @special
 357:./os/rt/include/chsys.h ****  */
 358:./os/rt/include/chsys.h **** static inline void chSysUnlock(void) {
 359:./os/rt/include/chsys.h **** 
 360:./os/rt/include/chsys.h ****   _dbg_check_unlock();
 361:./os/rt/include/chsys.h ****   _stats_stop_measure_crit_thd();
 362:./os/rt/include/chsys.h **** 
 363:./os/rt/include/chsys.h ****   /* The following condition can be triggered by the use of i-class functions
 364:./os/rt/include/chsys.h ****      in a critical section not followed by a chSchResceduleS(), this means
 365:./os/rt/include/chsys.h ****      that the current thread has a lower priority than the next thread in
 366:./os/rt/include/chsys.h ****      the ready list.*/
 367:./os/rt/include/chsys.h ****   chDbgAssert((ch.rlist.r_queue.p_next == (thread_t *)&ch.rlist.r_queue) ||
 368:./os/rt/include/chsys.h ****               (ch.rlist.r_current->p_prio >= ch.rlist.r_queue.p_next->p_prio),
 369:./os/rt/include/chsys.h ****               "priority order violation");
 370:./os/rt/include/chsys.h **** 
 371:./os/rt/include/chsys.h ****   port_unlock();
 254               		.loc 2 371 0
 255               	/* #APP */
 256               	 ;  371 "./os/rt/include/chsys.h" 1
 257 0000 7894      		sei
 258               	 ;  0 "" 2
 259               	/* #NOAPP */
 260               	.LBE5:
 261               	.LBE4:
 124:os/rt/ports/AVR/chcore.c **** 
 125:os/rt/ports/AVR/chcore.c ****   chSysUnlock();
 126:os/rt/ports/AVR/chcore.c ****   asm volatile ("movw    r24, r4");
 262               		.loc 1 126 0
 263               	/* #APP */
 264               	 ;  126 "os/rt/ports/AVR/chcore.c" 1
 265 0002 C201      		movw    r24, r4
 266               	 ;  0 "" 2
 127:os/rt/ports/AVR/chcore.c ****   asm volatile ("movw    r30, r2");
 267               		.loc 1 127 0
 268               	 ;  127 "os/rt/ports/AVR/chcore.c" 1
 269 0004 F101      		movw    r30, r2
 270               	 ;  0 "" 2
 128:os/rt/ports/AVR/chcore.c ****   asm volatile ("icall");
 271               		.loc 1 128 0
 272               	 ;  128 "os/rt/ports/AVR/chcore.c" 1
 273 0006 0995      		icall
 274               	 ;  0 "" 2
 129:os/rt/ports/AVR/chcore.c ****   asm volatile ("call    chThdExit");
 275               		.loc 1 129 0
 276               	 ;  129 "os/rt/ports/AVR/chcore.c" 1
 277 0008 0E94 0000 		call    chThdExit
 278               	 ;  0 "" 2
 279               	/* #NOAPP */
 280 000c 0895      		ret
 281               		.cfi_endproc
 282               	.LFE108:
 284               		.text
 285               	.Letext0:
 286               		.file 3 "/Applications/Arduino-1.6.6.app/Contents/Java/hardware/tools/avr/avr/include/stdint.h"
 287               		.file 4 "./os/rt/ports/AVR/compilers/GCC/chtypes.h"
 288               		.file 5 "./os/rt/include/chsystypes.h"
 289               		.file 6 "./os/rt/include/chschd.h"
 290               		.file 7 "./os/rt/ports/AVR/chcore.h"
 291               		.file 8 "./os/rt/include/chsem.h"
 292               		.file 9 "./os/rt/include/chmtx.h"
DEFINED SYMBOLS
                            *ABS*:00000000 chcore.c
/var/folders/gz/dqw9_7nx0r775dkkpq56lfw40000gn/T//ccsqb8Bn.s:2      *ABS*:0000003e __SP_H__
/var/folders/gz/dqw9_7nx0r775dkkpq56lfw40000gn/T//ccsqb8Bn.s:3      *ABS*:0000003d __SP_L__
/var/folders/gz/dqw9_7nx0r775dkkpq56lfw40000gn/T//ccsqb8Bn.s:4      *ABS*:0000003f __SREG__
/var/folders/gz/dqw9_7nx0r775dkkpq56lfw40000gn/T//ccsqb8Bn.s:5      *ABS*:00000000 __tmp_reg__
/var/folders/gz/dqw9_7nx0r775dkkpq56lfw40000gn/T//ccsqb8Bn.s:6      *ABS*:00000001 __zero_reg__
/var/folders/gz/dqw9_7nx0r775dkkpq56lfw40000gn/T//ccsqb8Bn.s:13     .text.port_switch:00000000 port_switch
/var/folders/gz/dqw9_7nx0r775dkkpq56lfw40000gn/T//ccsqb8Bn.s:221    .text.port_halt:00000000 port_halt
/var/folders/gz/dqw9_7nx0r775dkkpq56lfw40000gn/T//ccsqb8Bn.s:243    .text._port_thread_start:00000000 _port_thread_start

UNDEFINED SYMBOLS
chThdExit
