   1               		.file	"evtimer.c"
   2               	__SP_H__ = 0x3e
   3               	__SP_L__ = 0x3d
   4               	__SREG__ = 0x3f
   5               	__tmp_reg__ = 0
   6               	__zero_reg__ = 1
   7               		.text
   8               	.Ltext0:
   9               		.cfi_sections	.debug_frame
  10               		.section	.text.tmrcb,"ax",@progbits
  12               	tmrcb:
  13               	.LFB107:
  14               		.file 1 "os/various/evtimer.c"
   1:os/various/evtimer.c **** /*
   2:os/various/evtimer.c ****     ChibiOS - Copyright (C) 2006..2015 Giovanni Di Sirio
   3:os/various/evtimer.c **** 
   4:os/various/evtimer.c ****     Licensed under the Apache License, Version 2.0 (the "License");
   5:os/various/evtimer.c ****     you may not use this file except in compliance with the License.
   6:os/various/evtimer.c ****     You may obtain a copy of the License at
   7:os/various/evtimer.c **** 
   8:os/various/evtimer.c ****         http://www.apache.org/licenses/LICENSE-2.0
   9:os/various/evtimer.c **** 
  10:os/various/evtimer.c ****     Unless required by applicable law or agreed to in writing, software
  11:os/various/evtimer.c ****     distributed under the License is distributed on an "AS IS" BASIS,
  12:os/various/evtimer.c ****     WITHOUT WARRANTIES OR CONDITIONS OF ANY KIND, either express or implied.
  13:os/various/evtimer.c ****     See the License for the specific language governing permissions and
  14:os/various/evtimer.c ****     limitations under the License.
  15:os/various/evtimer.c **** */
  16:os/various/evtimer.c **** 
  17:os/various/evtimer.c **** /**
  18:os/various/evtimer.c ****  * @file    evtimer.c
  19:os/various/evtimer.c ****  * @brief   Events Generator Timer code.
  20:os/various/evtimer.c ****  *
  21:os/various/evtimer.c ****  * @addtogroup event_timer
  22:os/various/evtimer.c ****  * @{
  23:os/various/evtimer.c ****  */
  24:os/various/evtimer.c **** 
  25:os/various/evtimer.c **** #include "ch.h"
  26:os/various/evtimer.c **** #include "evtimer.h"
  27:os/various/evtimer.c **** 
  28:os/various/evtimer.c **** /*===========================================================================*/
  29:os/various/evtimer.c **** /* Module local definitions.                                                 */
  30:os/various/evtimer.c **** /*===========================================================================*/
  31:os/various/evtimer.c **** 
  32:os/various/evtimer.c **** /*===========================================================================*/
  33:os/various/evtimer.c **** /* Module exported variables.                                                */
  34:os/various/evtimer.c **** /*===========================================================================*/
  35:os/various/evtimer.c **** 
  36:os/various/evtimer.c **** /*===========================================================================*/
  37:os/various/evtimer.c **** /* Module local types.                                                       */
  38:os/various/evtimer.c **** /*===========================================================================*/
  39:os/various/evtimer.c **** 
  40:os/various/evtimer.c **** /*===========================================================================*/
  41:os/various/evtimer.c **** /* Module local variables.                                                   */
  42:os/various/evtimer.c **** /*===========================================================================*/
  43:os/various/evtimer.c **** 
  44:os/various/evtimer.c **** /*===========================================================================*/
  45:os/various/evtimer.c **** /* Module local functions.                                                   */
  46:os/various/evtimer.c **** /*===========================================================================*/
  47:os/various/evtimer.c **** 
  48:os/various/evtimer.c **** static void tmrcb(void *p) {
  15               		.loc 1 48 0
  16               		.cfi_startproc
  17               	.LVL0:
  18 0000 CF93      		push r28
  19               	.LCFI0:
  20               		.cfi_def_cfa_offset 3
  21               		.cfi_offset 28, -2
  22 0002 DF93      		push r29
  23               	.LCFI1:
  24               		.cfi_def_cfa_offset 4
  25               		.cfi_offset 29, -3
  26               	/* prologue: function */
  27               	/* frame size = 0 */
  28               	/* stack size = 2 */
  29               	.L__stack_usage = 2
  30 0004 EC01      		movw r28,r24
  31               	.LVL1:
  32               	.LBB28:
  33               	.LBB29:
  34               		.file 2 "./os/rt/include/chevents.h"
   1:./os/rt/include/chevents.h **** /*
   2:./os/rt/include/chevents.h ****     ChibiOS - Copyright (C) 2006..2015 Giovanni Di Sirio.
   3:./os/rt/include/chevents.h **** 
   4:./os/rt/include/chevents.h ****     This file is part of ChibiOS.
   5:./os/rt/include/chevents.h **** 
   6:./os/rt/include/chevents.h ****     ChibiOS is free software; you can redistribute it and/or modify
   7:./os/rt/include/chevents.h ****     it under the terms of the GNU General Public License as published by
   8:./os/rt/include/chevents.h ****     the Free Software Foundation; either version 3 of the License, or
   9:./os/rt/include/chevents.h ****     (at your option) any later version.
  10:./os/rt/include/chevents.h **** 
  11:./os/rt/include/chevents.h ****     ChibiOS is distributed in the hope that it will be useful,
  12:./os/rt/include/chevents.h ****     but WITHOUT ANY WARRANTY; without even the implied warranty of
  13:./os/rt/include/chevents.h ****     MERCHANTABILITY or FITNESS FOR A PARTICULAR PURPOSE.  See the
  14:./os/rt/include/chevents.h ****     GNU General Public License for more details.
  15:./os/rt/include/chevents.h **** 
  16:./os/rt/include/chevents.h ****     You should have received a copy of the GNU General Public License
  17:./os/rt/include/chevents.h ****     along with this program.  If not, see <http://www.gnu.org/licenses/>.
  18:./os/rt/include/chevents.h **** */
  19:./os/rt/include/chevents.h **** /*
  20:./os/rt/include/chevents.h ****    Concepts and parts of this file have been contributed by Scott (skute).
  21:./os/rt/include/chevents.h ****  */
  22:./os/rt/include/chevents.h **** 
  23:./os/rt/include/chevents.h **** /**
  24:./os/rt/include/chevents.h ****  * @file    chevents.h
  25:./os/rt/include/chevents.h ****  * @brief   Events macros and structures.
  26:./os/rt/include/chevents.h ****  *
  27:./os/rt/include/chevents.h ****  * @addtogroup events
  28:./os/rt/include/chevents.h ****  * @{
  29:./os/rt/include/chevents.h ****  */
  30:./os/rt/include/chevents.h **** 
  31:./os/rt/include/chevents.h **** #ifndef _CHEVENTS_H_
  32:./os/rt/include/chevents.h **** #define _CHEVENTS_H_
  33:./os/rt/include/chevents.h **** 
  34:./os/rt/include/chevents.h **** #if (CH_CFG_USE_EVENTS == TRUE) || defined(__DOXYGEN__)
  35:./os/rt/include/chevents.h **** 
  36:./os/rt/include/chevents.h **** /*===========================================================================*/
  37:./os/rt/include/chevents.h **** /* Module constants.                                                         */
  38:./os/rt/include/chevents.h **** /*===========================================================================*/
  39:./os/rt/include/chevents.h **** 
  40:./os/rt/include/chevents.h **** /*===========================================================================*/
  41:./os/rt/include/chevents.h **** /* Module pre-compile time settings.                                         */
  42:./os/rt/include/chevents.h **** /*===========================================================================*/
  43:./os/rt/include/chevents.h **** 
  44:./os/rt/include/chevents.h **** /*===========================================================================*/
  45:./os/rt/include/chevents.h **** /* Derived constants and error checks.                                       */
  46:./os/rt/include/chevents.h **** /*===========================================================================*/
  47:./os/rt/include/chevents.h **** 
  48:./os/rt/include/chevents.h **** /*===========================================================================*/
  49:./os/rt/include/chevents.h **** /* Module data structures and types.                                         */
  50:./os/rt/include/chevents.h **** /*===========================================================================*/
  51:./os/rt/include/chevents.h **** 
  52:./os/rt/include/chevents.h **** typedef struct event_listener event_listener_t;
  53:./os/rt/include/chevents.h **** 
  54:./os/rt/include/chevents.h **** /**
  55:./os/rt/include/chevents.h ****  * @brief   Event Listener structure.
  56:./os/rt/include/chevents.h ****  */
  57:./os/rt/include/chevents.h **** struct event_listener {
  58:./os/rt/include/chevents.h ****   event_listener_t      *el_next;       /**< @brief Next Event Listener
  59:./os/rt/include/chevents.h ****                                                     registered on the event
  60:./os/rt/include/chevents.h ****                                                     source.                 */
  61:./os/rt/include/chevents.h ****   thread_t              *el_listener;   /**< @brief Thread interested in the
  62:./os/rt/include/chevents.h ****                                                     event source.           */
  63:./os/rt/include/chevents.h ****   eventmask_t           el_events;      /**< @brief Events to be set in
  64:./os/rt/include/chevents.h ****                                                     the listening thread.   */
  65:./os/rt/include/chevents.h ****   eventflags_t          el_flags;       /**< @brief Flags added to the listener
  66:./os/rt/include/chevents.h ****                                                     by the event source.    */
  67:./os/rt/include/chevents.h ****   eventflags_t          el_wflags;      /**< @brief Flags that this listener
  68:./os/rt/include/chevents.h ****                                                     interested in.          */
  69:./os/rt/include/chevents.h **** };
  70:./os/rt/include/chevents.h **** 
  71:./os/rt/include/chevents.h **** /**
  72:./os/rt/include/chevents.h ****  * @brief   Event Source structure.
  73:./os/rt/include/chevents.h ****  */
  74:./os/rt/include/chevents.h **** typedef struct event_source {
  75:./os/rt/include/chevents.h ****   event_listener_t      *es_next;       /**< @brief First Event Listener
  76:./os/rt/include/chevents.h ****                                                     registered on the Event
  77:./os/rt/include/chevents.h ****                                                     Source.                 */
  78:./os/rt/include/chevents.h **** } event_source_t;
  79:./os/rt/include/chevents.h **** 
  80:./os/rt/include/chevents.h **** /**
  81:./os/rt/include/chevents.h ****  * @brief   Event Handler callback function.
  82:./os/rt/include/chevents.h ****  */
  83:./os/rt/include/chevents.h **** typedef void (*evhandler_t)(eventid_t id);
  84:./os/rt/include/chevents.h **** 
  85:./os/rt/include/chevents.h **** /*===========================================================================*/
  86:./os/rt/include/chevents.h **** /* Module macros.                                                            */
  87:./os/rt/include/chevents.h **** /*===========================================================================*/
  88:./os/rt/include/chevents.h **** 
  89:./os/rt/include/chevents.h **** /**
  90:./os/rt/include/chevents.h ****  * @brief   All events allowed mask.
  91:./os/rt/include/chevents.h ****  */
  92:./os/rt/include/chevents.h **** #define ALL_EVENTS      ((eventmask_t)-1)
  93:./os/rt/include/chevents.h **** 
  94:./os/rt/include/chevents.h **** /**
  95:./os/rt/include/chevents.h ****  * @brief   Returns an event mask from an event identifier.
  96:./os/rt/include/chevents.h ****  */
  97:./os/rt/include/chevents.h **** #define EVENT_MASK(eid) ((eventmask_t)1 << (eventmask_t)(eid))
  98:./os/rt/include/chevents.h **** 
  99:./os/rt/include/chevents.h **** /**
 100:./os/rt/include/chevents.h ****  * @brief   Data part of a static event source initializer.
 101:./os/rt/include/chevents.h ****  * @details This macro should be used when statically initializing an event
 102:./os/rt/include/chevents.h ****  *          source that is part of a bigger structure.
 103:./os/rt/include/chevents.h ****  * @param name the name of the event source variable
 104:./os/rt/include/chevents.h ****  */
 105:./os/rt/include/chevents.h **** #define _EVENTSOURCE_DATA(name) {(void *)(&name)}
 106:./os/rt/include/chevents.h **** 
 107:./os/rt/include/chevents.h **** /**
 108:./os/rt/include/chevents.h ****  * @brief   Static event source initializer.
 109:./os/rt/include/chevents.h ****  * @details Statically initialized event sources require no explicit
 110:./os/rt/include/chevents.h ****  *          initialization using @p chEvtInit().
 111:./os/rt/include/chevents.h ****  *
 112:./os/rt/include/chevents.h ****  * @param name          the name of the event source variable
 113:./os/rt/include/chevents.h ****  */
 114:./os/rt/include/chevents.h **** #define EVENTSOURCE_DECL(name) event_source_t name = _EVENTSOURCE_DATA(name)
 115:./os/rt/include/chevents.h **** 
 116:./os/rt/include/chevents.h **** /*===========================================================================*/
 117:./os/rt/include/chevents.h **** /* External declarations.                                                    */
 118:./os/rt/include/chevents.h **** /*===========================================================================*/
 119:./os/rt/include/chevents.h **** 
 120:./os/rt/include/chevents.h **** #ifdef __cplusplus
 121:./os/rt/include/chevents.h **** extern "C" {
 122:./os/rt/include/chevents.h **** #endif
 123:./os/rt/include/chevents.h ****   void chEvtRegisterMaskWithFlags(event_source_t *esp,
 124:./os/rt/include/chevents.h ****                                   event_listener_t *elp,
 125:./os/rt/include/chevents.h ****                                   eventmask_t events,
 126:./os/rt/include/chevents.h ****                                   eventflags_t wflags);
 127:./os/rt/include/chevents.h ****   void chEvtUnregister(event_source_t *esp, event_listener_t *elp);
 128:./os/rt/include/chevents.h ****   eventmask_t chEvtGetAndClearEvents(eventmask_t events);
 129:./os/rt/include/chevents.h ****   eventmask_t chEvtAddEvents(eventmask_t events);
 130:./os/rt/include/chevents.h ****   eventflags_t chEvtGetAndClearFlags(event_listener_t *elp);
 131:./os/rt/include/chevents.h ****   eventflags_t chEvtGetAndClearFlagsI(event_listener_t *elp);
 132:./os/rt/include/chevents.h ****   void chEvtSignal(thread_t *tp, eventmask_t events);
 133:./os/rt/include/chevents.h ****   void chEvtSignalI(thread_t *tp, eventmask_t events);
 134:./os/rt/include/chevents.h ****   void chEvtBroadcastFlags(event_source_t *esp, eventflags_t flags);
 135:./os/rt/include/chevents.h ****   void chEvtBroadcastFlagsI(event_source_t *esp, eventflags_t flags);
 136:./os/rt/include/chevents.h ****   void chEvtDispatch(const evhandler_t *handlers, eventmask_t events);
 137:./os/rt/include/chevents.h **** #if (CH_CFG_OPTIMIZE_SPEED == TRUE) || (CH_CFG_USE_EVENTS_TIMEOUT == FALSE)
 138:./os/rt/include/chevents.h ****   eventmask_t chEvtWaitOne(eventmask_t events);
 139:./os/rt/include/chevents.h ****   eventmask_t chEvtWaitAny(eventmask_t events);
 140:./os/rt/include/chevents.h ****   eventmask_t chEvtWaitAll(eventmask_t events);
 141:./os/rt/include/chevents.h **** #endif
 142:./os/rt/include/chevents.h **** #if CH_CFG_USE_EVENTS_TIMEOUT == TRUE
 143:./os/rt/include/chevents.h ****   eventmask_t chEvtWaitOneTimeout(eventmask_t events, systime_t time);
 144:./os/rt/include/chevents.h ****   eventmask_t chEvtWaitAnyTimeout(eventmask_t events, systime_t time);
 145:./os/rt/include/chevents.h ****   eventmask_t chEvtWaitAllTimeout(eventmask_t events, systime_t time);
 146:./os/rt/include/chevents.h **** #endif
 147:./os/rt/include/chevents.h **** #ifdef __cplusplus
 148:./os/rt/include/chevents.h **** }
 149:./os/rt/include/chevents.h **** #endif
 150:./os/rt/include/chevents.h **** 
 151:./os/rt/include/chevents.h **** #if (CH_CFG_OPTIMIZE_SPEED == FALSE) && (CH_CFG_USE_EVENTS_TIMEOUT == TRUE)
 152:./os/rt/include/chevents.h **** #define chEvtWaitOne(mask) chEvtWaitOneTimeout(mask, TIME_INFINITE)
 153:./os/rt/include/chevents.h **** #define chEvtWaitAny(mask) chEvtWaitAnyTimeout(mask, TIME_INFINITE)
 154:./os/rt/include/chevents.h **** #define chEvtWaitAll(mask) chEvtWaitAllTimeout(mask, TIME_INFINITE)
 155:./os/rt/include/chevents.h **** #endif
 156:./os/rt/include/chevents.h **** 
 157:./os/rt/include/chevents.h **** /*===========================================================================*/
 158:./os/rt/include/chevents.h **** /* Module inline functions.                                                  */
 159:./os/rt/include/chevents.h **** /*===========================================================================*/
 160:./os/rt/include/chevents.h **** 
 161:./os/rt/include/chevents.h **** /**
 162:./os/rt/include/chevents.h ****  * @brief   Initializes an Event Source.
 163:./os/rt/include/chevents.h ****  * @note    This function can be invoked before the kernel is initialized
 164:./os/rt/include/chevents.h ****  *          because it just prepares a @p event_source_t structure.
 165:./os/rt/include/chevents.h ****  *
 166:./os/rt/include/chevents.h ****  * @param[in] esp       pointer to the @p event_source_t structure
 167:./os/rt/include/chevents.h ****  *
 168:./os/rt/include/chevents.h ****  * @init
 169:./os/rt/include/chevents.h ****  */
 170:./os/rt/include/chevents.h **** static inline void chEvtObjectInit(event_source_t *esp) {
 171:./os/rt/include/chevents.h **** 
 172:./os/rt/include/chevents.h ****   esp->es_next = (event_listener_t *)esp;
 173:./os/rt/include/chevents.h **** }
 174:./os/rt/include/chevents.h **** 
 175:./os/rt/include/chevents.h **** /**
 176:./os/rt/include/chevents.h ****  * @brief     Registers an Event Listener on an Event Source.
 177:./os/rt/include/chevents.h ****  * @details Once a thread has registered as listener on an event source it
 178:./os/rt/include/chevents.h ****  *             will be notified of all events broadcasted there.
 179:./os/rt/include/chevents.h ****  * @note     Multiple Event Listeners can specify the same bits to be ORed to
 180:./os/rt/include/chevents.h ****  *             different threads.
 181:./os/rt/include/chevents.h ****  *
 182:./os/rt/include/chevents.h ****  * @param[in] esp       pointer to the @p event_source_t structure
 183:./os/rt/include/chevents.h ****  * @param[out] elp      pointer to the @p event_listener_t structure
 184:./os/rt/include/chevents.h ****  * @param[in] events    the mask of events to be ORed to the thread when
 185:./os/rt/include/chevents.h ****  *                      the event source is broadcasted
 186:./os/rt/include/chevents.h ****  *
 187:./os/rt/include/chevents.h ****  * @api
 188:./os/rt/include/chevents.h ****  */
 189:./os/rt/include/chevents.h **** static inline void chEvtRegisterMask(event_source_t *esp,
 190:./os/rt/include/chevents.h ****                                      event_listener_t *elp,
 191:./os/rt/include/chevents.h ****                                      eventmask_t events) {
 192:./os/rt/include/chevents.h **** 
 193:./os/rt/include/chevents.h ****   chEvtRegisterMaskWithFlags(esp, elp, events, (eventflags_t)-1);
 194:./os/rt/include/chevents.h **** }
 195:./os/rt/include/chevents.h **** 
 196:./os/rt/include/chevents.h **** /**
 197:./os/rt/include/chevents.h ****  * @brief   Registers an Event Listener on an Event Source.
 198:./os/rt/include/chevents.h ****  * @note    Multiple Event Listeners can use the same event identifier, the
 199:./os/rt/include/chevents.h ****  *          listener will share the callback function.
 200:./os/rt/include/chevents.h ****  *
 201:./os/rt/include/chevents.h ****  * @param[in] esp       pointer to the  @p event_source_t structure
 202:./os/rt/include/chevents.h ****  * @param[out] elp      pointer to the @p event_listener_t structure
 203:./os/rt/include/chevents.h ****  * @param[in] event     numeric identifier assigned to the Event Listener.
 204:./os/rt/include/chevents.h ****  *                      The value must range between zero and the size, in bit,
 205:./os/rt/include/chevents.h ****  *                      of the @p eventmask_t type minus one.
 206:./os/rt/include/chevents.h ****  *
 207:./os/rt/include/chevents.h ****  * @api
 208:./os/rt/include/chevents.h ****  */
 209:./os/rt/include/chevents.h **** static inline void chEvtRegister(event_source_t *esp,
 210:./os/rt/include/chevents.h ****                                  event_listener_t *elp,
 211:./os/rt/include/chevents.h ****                                  eventid_t event) {
 212:./os/rt/include/chevents.h **** 
 213:./os/rt/include/chevents.h ****   chEvtRegisterMask(esp, elp, EVENT_MASK(event));
 214:./os/rt/include/chevents.h **** }
 215:./os/rt/include/chevents.h **** 
 216:./os/rt/include/chevents.h **** /**
 217:./os/rt/include/chevents.h ****  * @brief   Verifies if there is at least one @p event_listener_t registered.
 218:./os/rt/include/chevents.h ****  *
 219:./os/rt/include/chevents.h ****  * @param[in] esp       pointer to the @p event_source_t structure
 220:./os/rt/include/chevents.h ****  * @return              The event source status.
 221:./os/rt/include/chevents.h ****  *
 222:./os/rt/include/chevents.h ****  * @iclass
 223:./os/rt/include/chevents.h ****  */
 224:./os/rt/include/chevents.h **** static inline bool chEvtIsListeningI(event_source_t *esp) {
 225:./os/rt/include/chevents.h **** 
 226:./os/rt/include/chevents.h ****   return (bool)(esp != (event_source_t *)esp->es_next);
 227:./os/rt/include/chevents.h **** }
 228:./os/rt/include/chevents.h **** 
 229:./os/rt/include/chevents.h **** /**
 230:./os/rt/include/chevents.h ****  * @brief   Signals all the Event Listeners registered on the specified Event
 231:./os/rt/include/chevents.h ****  *          Source.
 232:./os/rt/include/chevents.h ****  *
 233:./os/rt/include/chevents.h ****  * @param[in] esp       pointer to the @p event_source_t structure
 234:./os/rt/include/chevents.h ****  *
 235:./os/rt/include/chevents.h ****  * @api
 236:./os/rt/include/chevents.h ****  */
 237:./os/rt/include/chevents.h **** static inline void chEvtBroadcast(event_source_t *esp) {
 238:./os/rt/include/chevents.h **** 
 239:./os/rt/include/chevents.h ****   chEvtBroadcastFlags(esp, (eventflags_t)0);
 240:./os/rt/include/chevents.h **** }
 241:./os/rt/include/chevents.h **** 
 242:./os/rt/include/chevents.h **** /**
 243:./os/rt/include/chevents.h ****  * @brief   Signals all the Event Listeners registered on the specified Event
 244:./os/rt/include/chevents.h ****  *          Source.
 245:./os/rt/include/chevents.h ****  * @post    This function does not reschedule so a call to a rescheduling
 246:./os/rt/include/chevents.h ****  *          function must be performed before unlocking the kernel. Note that
 247:./os/rt/include/chevents.h ****  *          interrupt handlers always reschedule on exit so an explicit
 248:./os/rt/include/chevents.h ****  *          reschedule must not be performed in ISRs.
 249:./os/rt/include/chevents.h ****  *
 250:./os/rt/include/chevents.h ****  * @param[in] esp       pointer to the @p event_source_t structure
 251:./os/rt/include/chevents.h ****  *
 252:./os/rt/include/chevents.h ****  * @iclass
 253:./os/rt/include/chevents.h ****  */
 254:./os/rt/include/chevents.h **** static inline void chEvtBroadcastI(event_source_t *esp) {
 255:./os/rt/include/chevents.h **** 
 256:./os/rt/include/chevents.h ****   chEvtBroadcastFlagsI(esp, (eventflags_t)0);
  35               		.loc 2 256 0
  36 0006 60E0      		ldi r22,0
  37 0008 0A96      		adiw r24,10
  38               	.LVL2:
  39 000a 0E94 0000 		call chEvtBroadcastFlagsI
  40               	.LVL3:
  41               	.LBE29:
  42               	.LBE28:
  49:os/various/evtimer.c ****   event_timer_t *etp = p;
  50:os/various/evtimer.c **** 
  51:os/various/evtimer.c ****   chSysLockFromISR();
  52:os/various/evtimer.c ****   chEvtBroadcastI(&etp->et_es);
  53:os/various/evtimer.c ****   chVTDoSetI(&etp->et_vt, etp->et_interval, tmrcb, etp);
  43               		.loc 1 53 0
  44 000e 6C85      		ldd r22,Y+12
  45 0010 7D85      		ldd r23,Y+13
  46 0012 9E01      		movw r18,r28
  47 0014 40E0      		ldi r20,lo8(gs(tmrcb))
  48 0016 50E0      		ldi r21,hi8(gs(tmrcb))
  49 0018 CE01      		movw r24,r28
  50               	/* epilogue start */
  54:os/various/evtimer.c ****   chSysUnlockFromISR();
  55:os/various/evtimer.c **** }
  51               		.loc 1 55 0
  52 001a DF91      		pop r29
  53 001c CF91      		pop r28
  54               	.LVL4:
  53:os/various/evtimer.c ****   chSysUnlockFromISR();
  55               		.loc 1 53 0
  56 001e 0C94 0000 		jmp chVTDoSetI
  57               	.LVL5:
  58               		.cfi_endproc
  59               	.LFE107:
  61               		.section	.text.evtObjectInit,"ax",@progbits
  62               	.global	evtObjectInit
  64               	evtObjectInit:
  65               	.LFB108:
  56:os/various/evtimer.c **** 
  57:os/various/evtimer.c **** /*===========================================================================*/
  58:os/various/evtimer.c **** /* Module exported functions.                                                */
  59:os/various/evtimer.c **** /*===========================================================================*/
  60:os/various/evtimer.c **** 
  61:os/various/evtimer.c **** /**
  62:os/various/evtimer.c ****  * @brief Initializes an @p event_timer_t structure.
  63:os/various/evtimer.c ****  *
  64:os/various/evtimer.c ****  * @param[out] etp      the @p event_timer_t structure to be initialized
  65:os/various/evtimer.c ****  * @param[in] time      the interval in system ticks
  66:os/various/evtimer.c ****  */
  67:os/various/evtimer.c **** void evtObjectInit(event_timer_t *etp, systime_t time) {
  66               		.loc 1 67 0
  67               		.cfi_startproc
  68               	.LVL6:
  69               	/* prologue: function */
  70               	/* frame size = 0 */
  71               	/* stack size = 0 */
  72               	.L__stack_usage = 0
  73 0000 FC01      		movw r30,r24
  74               	.LVL7:
  68:os/various/evtimer.c **** 
  69:os/various/evtimer.c ****   chEvtObjectInit(&etp->et_es);
  75               		.loc 1 69 0
  76 0002 0A96      		adiw r24,10
  77               	.LVL8:
  78               	.LBB30:
  79               	.LBB31:
 172:./os/rt/include/chevents.h **** }
  80               		.loc 2 172 0
  81 0004 9387      		std Z+11,r25
  82 0006 8287      		std Z+10,r24
  83               	.LVL9:
  84               	.LBE31:
  85               	.LBE30:
  86               	.LBB32:
  87               	.LBB33:
  88               		.file 3 "./os/rt/include/chvt.h"
   1:./os/rt/include/chvt.h **** /*
   2:./os/rt/include/chvt.h ****     ChibiOS - Copyright (C) 2006..2015 Giovanni Di Sirio.
   3:./os/rt/include/chvt.h **** 
   4:./os/rt/include/chvt.h ****     This file is part of ChibiOS.
   5:./os/rt/include/chvt.h **** 
   6:./os/rt/include/chvt.h ****     ChibiOS is free software; you can redistribute it and/or modify
   7:./os/rt/include/chvt.h ****     it under the terms of the GNU General Public License as published by
   8:./os/rt/include/chvt.h ****     the Free Software Foundation; either version 3 of the License, or
   9:./os/rt/include/chvt.h ****     (at your option) any later version.
  10:./os/rt/include/chvt.h **** 
  11:./os/rt/include/chvt.h ****     ChibiOS is distributed in the hope that it will be useful,
  12:./os/rt/include/chvt.h ****     but WITHOUT ANY WARRANTY; without even the implied warranty of
  13:./os/rt/include/chvt.h ****     MERCHANTABILITY or FITNESS FOR A PARTICULAR PURPOSE.  See the
  14:./os/rt/include/chvt.h ****     GNU General Public License for more details.
  15:./os/rt/include/chvt.h **** 
  16:./os/rt/include/chvt.h ****     You should have received a copy of the GNU General Public License
  17:./os/rt/include/chvt.h ****     along with this program.  If not, see <http://www.gnu.org/licenses/>.
  18:./os/rt/include/chvt.h **** */
  19:./os/rt/include/chvt.h **** 
  20:./os/rt/include/chvt.h **** /**
  21:./os/rt/include/chvt.h ****  * @file    chvt.h
  22:./os/rt/include/chvt.h ****  * @brief   Time and Virtual Timers module macros and structures.
  23:./os/rt/include/chvt.h ****  *
  24:./os/rt/include/chvt.h ****  * @addtogroup time
  25:./os/rt/include/chvt.h ****  * @{
  26:./os/rt/include/chvt.h ****  */
  27:./os/rt/include/chvt.h **** 
  28:./os/rt/include/chvt.h **** #ifndef _CHVT_H_
  29:./os/rt/include/chvt.h **** #define _CHVT_H_
  30:./os/rt/include/chvt.h **** 
  31:./os/rt/include/chvt.h **** /*===========================================================================*/
  32:./os/rt/include/chvt.h **** /* Module constants.                                                         */
  33:./os/rt/include/chvt.h **** /*===========================================================================*/
  34:./os/rt/include/chvt.h **** 
  35:./os/rt/include/chvt.h **** /**
  36:./os/rt/include/chvt.h ****  * @name    Special time constants
  37:./os/rt/include/chvt.h ****  * @{
  38:./os/rt/include/chvt.h ****  */
  39:./os/rt/include/chvt.h **** /**
  40:./os/rt/include/chvt.h ****  * @brief   Zero time specification for some functions with a timeout
  41:./os/rt/include/chvt.h ****  *          specification.
  42:./os/rt/include/chvt.h ****  * @note    Not all functions accept @p TIME_IMMEDIATE as timeout parameter,
  43:./os/rt/include/chvt.h ****  *          see the specific function documentation.
  44:./os/rt/include/chvt.h ****  */
  45:./os/rt/include/chvt.h **** #define TIME_IMMEDIATE  ((systime_t)0)
  46:./os/rt/include/chvt.h **** 
  47:./os/rt/include/chvt.h **** /**
  48:./os/rt/include/chvt.h ****  * @brief   Infinite time specification for all functions with a timeout
  49:./os/rt/include/chvt.h ****  *          specification.
  50:./os/rt/include/chvt.h ****  * @note    Not all functions accept @p TIME_INFINITE as timeout parameter,
  51:./os/rt/include/chvt.h ****  *          see the specific function documentation.
  52:./os/rt/include/chvt.h ****  */
  53:./os/rt/include/chvt.h **** #define TIME_INFINITE   ((systime_t)-1)
  54:./os/rt/include/chvt.h **** /** @} */
  55:./os/rt/include/chvt.h **** 
  56:./os/rt/include/chvt.h **** /*===========================================================================*/
  57:./os/rt/include/chvt.h **** /* Module pre-compile time settings.                                         */
  58:./os/rt/include/chvt.h **** /*===========================================================================*/
  59:./os/rt/include/chvt.h **** 
  60:./os/rt/include/chvt.h **** /*===========================================================================*/
  61:./os/rt/include/chvt.h **** /* Derived constants and error checks.                                       */
  62:./os/rt/include/chvt.h **** /*===========================================================================*/
  63:./os/rt/include/chvt.h **** 
  64:./os/rt/include/chvt.h **** #if (CH_CFG_ST_RESOLUTION != 16) && (CH_CFG_ST_RESOLUTION != 32)
  65:./os/rt/include/chvt.h **** #error "invalid CH_CFG_ST_RESOLUTION specified, must be 16 or 32"
  66:./os/rt/include/chvt.h **** #endif
  67:./os/rt/include/chvt.h **** 
  68:./os/rt/include/chvt.h **** #if CH_CFG_ST_FREQUENCY <= 0
  69:./os/rt/include/chvt.h **** #error "invalid CH_CFG_ST_FREQUENCY specified, must be greater than zero"
  70:./os/rt/include/chvt.h **** #endif
  71:./os/rt/include/chvt.h **** 
  72:./os/rt/include/chvt.h **** #if (CH_CFG_ST_TIMEDELTA < 0) || (CH_CFG_ST_TIMEDELTA == 1)
  73:./os/rt/include/chvt.h **** #error "invalid CH_CFG_ST_TIMEDELTA specified, must "                       \
  74:./os/rt/include/chvt.h ****        "be zero or greater than one"
  75:./os/rt/include/chvt.h **** #endif
  76:./os/rt/include/chvt.h **** 
  77:./os/rt/include/chvt.h **** #if (CH_CFG_ST_TIMEDELTA > 0) && (CH_CFG_TIME_QUANTUM > 0)
  78:./os/rt/include/chvt.h **** #error "CH_CFG_TIME_QUANTUM not supported in tickless mode"
  79:./os/rt/include/chvt.h **** #endif
  80:./os/rt/include/chvt.h **** 
  81:./os/rt/include/chvt.h **** #if (CH_CFG_ST_TIMEDELTA > 0) && (CH_DBG_THREADS_PROFILING == TRUE)
  82:./os/rt/include/chvt.h **** #error "CH_DBG_THREADS_PROFILING not supported in tickless mode"
  83:./os/rt/include/chvt.h **** #endif
  84:./os/rt/include/chvt.h **** 
  85:./os/rt/include/chvt.h **** /*===========================================================================*/
  86:./os/rt/include/chvt.h **** /* Module data structures and types.                                         */
  87:./os/rt/include/chvt.h **** /*===========================================================================*/
  88:./os/rt/include/chvt.h **** 
  89:./os/rt/include/chvt.h **** /*===========================================================================*/
  90:./os/rt/include/chvt.h **** /* Module macros.                                                            */
  91:./os/rt/include/chvt.h **** /*===========================================================================*/
  92:./os/rt/include/chvt.h **** 
  93:./os/rt/include/chvt.h **** /**
  94:./os/rt/include/chvt.h ****  * @name    Time conversion utilities
  95:./os/rt/include/chvt.h ****  * @{
  96:./os/rt/include/chvt.h ****  */
  97:./os/rt/include/chvt.h **** /**
  98:./os/rt/include/chvt.h ****  * @brief   Seconds to system ticks.
  99:./os/rt/include/chvt.h ****  * @details Converts from seconds to system ticks number.
 100:./os/rt/include/chvt.h ****  * @note    The result is rounded upward to the next tick boundary.
 101:./os/rt/include/chvt.h ****  *
 102:./os/rt/include/chvt.h ****  * @param[in] sec       number of seconds
 103:./os/rt/include/chvt.h ****  * @return              The number of ticks.
 104:./os/rt/include/chvt.h ****  *
 105:./os/rt/include/chvt.h ****  * @api
 106:./os/rt/include/chvt.h ****  */
 107:./os/rt/include/chvt.h **** #define S2ST(sec)                                                           \
 108:./os/rt/include/chvt.h ****   ((systime_t)((uint32_t)(sec) * (uint32_t)CH_CFG_ST_FREQUENCY))
 109:./os/rt/include/chvt.h **** 
 110:./os/rt/include/chvt.h **** /**
 111:./os/rt/include/chvt.h ****  * @brief   Milliseconds to system ticks.
 112:./os/rt/include/chvt.h ****  * @details Converts from milliseconds to system ticks number.
 113:./os/rt/include/chvt.h ****  * @note    The result is rounded upward to the next tick boundary.
 114:./os/rt/include/chvt.h ****  *
 115:./os/rt/include/chvt.h ****  * @param[in] msec      number of milliseconds
 116:./os/rt/include/chvt.h ****  * @return              The number of ticks.
 117:./os/rt/include/chvt.h ****  *
 118:./os/rt/include/chvt.h ****  * @api
 119:./os/rt/include/chvt.h ****  */
 120:./os/rt/include/chvt.h **** #define MS2ST(msec)                                                         \
 121:./os/rt/include/chvt.h ****   ((systime_t)(((((uint32_t)(msec)) *                                       \
 122:./os/rt/include/chvt.h ****                  ((uint32_t)CH_CFG_ST_FREQUENCY)) + 999UL) / 1000UL))
 123:./os/rt/include/chvt.h **** 
 124:./os/rt/include/chvt.h **** /**
 125:./os/rt/include/chvt.h ****  * @brief   Microseconds to system ticks.
 126:./os/rt/include/chvt.h ****  * @details Converts from microseconds to system ticks number.
 127:./os/rt/include/chvt.h ****  * @note    The result is rounded upward to the next tick boundary.
 128:./os/rt/include/chvt.h ****  *
 129:./os/rt/include/chvt.h ****  * @param[in] usec      number of microseconds
 130:./os/rt/include/chvt.h ****  * @return              The number of ticks.
 131:./os/rt/include/chvt.h ****  *
 132:./os/rt/include/chvt.h ****  * @api
 133:./os/rt/include/chvt.h ****  */
 134:./os/rt/include/chvt.h **** #define US2ST(usec)                                                         \
 135:./os/rt/include/chvt.h ****   ((systime_t)(((((uint32_t)(usec)) *                                       \
 136:./os/rt/include/chvt.h ****                  ((uint32_t)CH_CFG_ST_FREQUENCY)) + 999999UL) / 1000000UL))
 137:./os/rt/include/chvt.h **** 
 138:./os/rt/include/chvt.h **** /**
 139:./os/rt/include/chvt.h ****  * @brief   System ticks to seconds.
 140:./os/rt/include/chvt.h ****  * @details Converts from system ticks number to seconds.
 141:./os/rt/include/chvt.h ****  * @note    The result is rounded up to the next second boundary.
 142:./os/rt/include/chvt.h ****  *
 143:./os/rt/include/chvt.h ****  * @param[in] n         number of system ticks
 144:./os/rt/include/chvt.h ****  * @return              The number of seconds.
 145:./os/rt/include/chvt.h ****  *
 146:./os/rt/include/chvt.h ****  * @api
 147:./os/rt/include/chvt.h ****  */
 148:./os/rt/include/chvt.h **** #define ST2S(n) (((n) + CH_CFG_ST_FREQUENCY - 1UL) / CH_CFG_ST_FREQUENCY)
 149:./os/rt/include/chvt.h **** 
 150:./os/rt/include/chvt.h **** /**
 151:./os/rt/include/chvt.h ****  * @brief   System ticks to milliseconds.
 152:./os/rt/include/chvt.h ****  * @details Converts from system ticks number to milliseconds.
 153:./os/rt/include/chvt.h ****  * @note    The result is rounded up to the next millisecond boundary.
 154:./os/rt/include/chvt.h ****  *
 155:./os/rt/include/chvt.h ****  * @param[in] n         number of system ticks
 156:./os/rt/include/chvt.h ****  * @return              The number of milliseconds.
 157:./os/rt/include/chvt.h ****  *
 158:./os/rt/include/chvt.h ****  * @api
 159:./os/rt/include/chvt.h ****  */
 160:./os/rt/include/chvt.h **** #define ST2MS(n) (((n) * 1000UL + CH_CFG_ST_FREQUENCY - 1UL) /              \
 161:./os/rt/include/chvt.h ****                   CH_CFG_ST_FREQUENCY)
 162:./os/rt/include/chvt.h **** 
 163:./os/rt/include/chvt.h **** /**
 164:./os/rt/include/chvt.h ****  * @brief   System ticks to microseconds.
 165:./os/rt/include/chvt.h ****  * @details Converts from system ticks number to microseconds.
 166:./os/rt/include/chvt.h ****  * @note    The result is rounded up to the next microsecond boundary.
 167:./os/rt/include/chvt.h ****  *
 168:./os/rt/include/chvt.h ****  * @param[in] n         number of system ticks
 169:./os/rt/include/chvt.h ****  * @return              The number of microseconds.
 170:./os/rt/include/chvt.h ****  *
 171:./os/rt/include/chvt.h ****  * @api
 172:./os/rt/include/chvt.h ****  */
 173:./os/rt/include/chvt.h **** #define ST2US(n) (((n) * 1000000UL + CH_CFG_ST_FREQUENCY - 1UL) /           \
 174:./os/rt/include/chvt.h ****                   CH_CFG_ST_FREQUENCY)
 175:./os/rt/include/chvt.h **** /** @} */
 176:./os/rt/include/chvt.h **** 
 177:./os/rt/include/chvt.h **** /*===========================================================================*/
 178:./os/rt/include/chvt.h **** /* External declarations.                                                    */
 179:./os/rt/include/chvt.h **** /*===========================================================================*/
 180:./os/rt/include/chvt.h **** 
 181:./os/rt/include/chvt.h **** /*
 182:./os/rt/include/chvt.h ****  * Virtual Timers APIs.
 183:./os/rt/include/chvt.h ****  */
 184:./os/rt/include/chvt.h **** #ifdef __cplusplus
 185:./os/rt/include/chvt.h **** extern "C" {
 186:./os/rt/include/chvt.h **** #endif
 187:./os/rt/include/chvt.h ****   void _vt_init(void);
 188:./os/rt/include/chvt.h ****   void chVTDoSetI(virtual_timer_t *vtp, systime_t delay,
 189:./os/rt/include/chvt.h ****                   vtfunc_t vtfunc, void *par);
 190:./os/rt/include/chvt.h ****   void chVTDoResetI(virtual_timer_t *vtp);
 191:./os/rt/include/chvt.h **** #ifdef __cplusplus
 192:./os/rt/include/chvt.h **** }
 193:./os/rt/include/chvt.h **** #endif
 194:./os/rt/include/chvt.h **** 
 195:./os/rt/include/chvt.h **** /*===========================================================================*/
 196:./os/rt/include/chvt.h **** /* Module inline functions.                                                  */
 197:./os/rt/include/chvt.h **** /*===========================================================================*/
 198:./os/rt/include/chvt.h **** 
 199:./os/rt/include/chvt.h **** /**
 200:./os/rt/include/chvt.h ****  * @brief   Initializes a @p virtual_timer_t object.
 201:./os/rt/include/chvt.h ****  * @note    Initializing a timer object is not strictly required because
 202:./os/rt/include/chvt.h ****  *          the function @p chVTSetI() initializes the object too. This
 203:./os/rt/include/chvt.h ****  *          function is only useful if you need to perform a @p chVTIsArmed()
 204:./os/rt/include/chvt.h ****  *          check before calling @p chVTSetI().
 205:./os/rt/include/chvt.h ****  *
 206:./os/rt/include/chvt.h ****  * @param[out] vtp      the @p virtual_timer_t structure pointer
 207:./os/rt/include/chvt.h ****  *
 208:./os/rt/include/chvt.h ****  * @init
 209:./os/rt/include/chvt.h ****  */
 210:./os/rt/include/chvt.h **** static inline void chVTObjectInit(virtual_timer_t *vtp) {
 211:./os/rt/include/chvt.h **** 
 212:./os/rt/include/chvt.h ****   vtp->vt_func = NULL;
  89               		.loc 3 212 0
  90 0008 1782      		std Z+7,__zero_reg__
  91 000a 1682      		std Z+6,__zero_reg__
  92               	.LBE33:
  93               	.LBE32:
  70:os/various/evtimer.c ****   chVTObjectInit(&etp->et_vt);
  71:os/various/evtimer.c ****   etp->et_interval = time;
  94               		.loc 1 71 0
  95 000c 7587      		std Z+13,r23
  96 000e 6487      		std Z+12,r22
  97 0010 0895      		ret
  98               		.cfi_endproc
  99               	.LFE108:
 101               		.section	.text.evtStart,"ax",@progbits
 102               	.global	evtStart
 104               	evtStart:
 105               	.LFB109:
  72:os/various/evtimer.c **** }
  73:os/various/evtimer.c **** 
  74:os/various/evtimer.c **** /**
  75:os/various/evtimer.c ****  * @brief   Starts the timer
  76:os/various/evtimer.c ****  * @details If the timer was already running then the function has no effect.
  77:os/various/evtimer.c ****  *
  78:os/various/evtimer.c ****  * @param[in] etp       pointer to an initialized @p event_timer_t structure.
  79:os/various/evtimer.c ****  */
  80:os/various/evtimer.c **** void evtStart(event_timer_t *etp) {
 106               		.loc 1 80 0
 107               		.cfi_startproc
 108               	.LVL10:
 109 0000 0F93      		push r16
 110               	.LCFI2:
 111               		.cfi_def_cfa_offset 3
 112               		.cfi_offset 16, -2
 113 0002 1F93      		push r17
 114               	.LCFI3:
 115               		.cfi_def_cfa_offset 4
 116               		.cfi_offset 17, -3
 117 0004 CF93      		push r28
 118               	.LCFI4:
 119               		.cfi_def_cfa_offset 5
 120               		.cfi_offset 28, -4
 121 0006 DF93      		push r29
 122               	.LCFI5:
 123               		.cfi_def_cfa_offset 6
 124               		.cfi_offset 29, -5
 125               	/* prologue: function */
 126               	/* frame size = 0 */
 127               	/* stack size = 4 */
 128               	.L__stack_usage = 4
 129 0008 EC01      		movw r28,r24
  81:os/various/evtimer.c **** 
  82:os/various/evtimer.c ****   chVTSet(&etp->et_vt, etp->et_interval, tmrcb, etp);
 130               		.loc 1 82 0
 131 000a 0C85      		ldd r16,Y+12
 132 000c 1D85      		ldd r17,Y+13
 133               	.LVL11:
 134               	.LBB44:
 135               	.LBB45:
 136               	.LBB46:
 137               		.file 4 "./os/rt/include/chsys.h"
   1:./os/rt/include/chsys.h **** /*
   2:./os/rt/include/chsys.h ****     ChibiOS - Copyright (C) 2006..2015 Giovanni Di Sirio.
   3:./os/rt/include/chsys.h **** 
   4:./os/rt/include/chsys.h ****     This file is part of ChibiOS.
   5:./os/rt/include/chsys.h **** 
   6:./os/rt/include/chsys.h ****     ChibiOS is free software; you can redistribute it and/or modify
   7:./os/rt/include/chsys.h ****     it under the terms of the GNU General Public License as published by
   8:./os/rt/include/chsys.h ****     the Free Software Foundation; either version 3 of the License, or
   9:./os/rt/include/chsys.h ****     (at your option) any later version.
  10:./os/rt/include/chsys.h **** 
  11:./os/rt/include/chsys.h ****     ChibiOS is distributed in the hope that it will be useful,
  12:./os/rt/include/chsys.h ****     but WITHOUT ANY WARRANTY; without even the implied warranty of
  13:./os/rt/include/chsys.h ****     MERCHANTABILITY or FITNESS FOR A PARTICULAR PURPOSE.  See the
  14:./os/rt/include/chsys.h ****     GNU General Public License for more details.
  15:./os/rt/include/chsys.h **** 
  16:./os/rt/include/chsys.h ****     You should have received a copy of the GNU General Public License
  17:./os/rt/include/chsys.h ****     along with this program.  If not, see <http://www.gnu.org/licenses/>.
  18:./os/rt/include/chsys.h **** */
  19:./os/rt/include/chsys.h **** 
  20:./os/rt/include/chsys.h **** /**
  21:./os/rt/include/chsys.h ****  * @file    chsys.h
  22:./os/rt/include/chsys.h ****  * @brief   System related macros and structures.
  23:./os/rt/include/chsys.h ****  *
  24:./os/rt/include/chsys.h ****  * @addtogroup system
  25:./os/rt/include/chsys.h ****  * @{
  26:./os/rt/include/chsys.h ****  */
  27:./os/rt/include/chsys.h **** 
  28:./os/rt/include/chsys.h **** #ifndef _CHSYS_H_
  29:./os/rt/include/chsys.h **** #define _CHSYS_H_
  30:./os/rt/include/chsys.h **** 
  31:./os/rt/include/chsys.h **** /*lint -sem(chSysHalt, r_no)*/
  32:./os/rt/include/chsys.h **** 
  33:./os/rt/include/chsys.h **** /*===========================================================================*/
  34:./os/rt/include/chsys.h **** /* Module constants.                                                         */
  35:./os/rt/include/chsys.h **** /*===========================================================================*/
  36:./os/rt/include/chsys.h **** 
  37:./os/rt/include/chsys.h **** /**
  38:./os/rt/include/chsys.h ****  * @name    Masks of executable integrity checks.
  39:./os/rt/include/chsys.h ****  * @{
  40:./os/rt/include/chsys.h ****  */
  41:./os/rt/include/chsys.h **** #define CH_INTEGRITY_RLIST                  1U
  42:./os/rt/include/chsys.h **** #define CH_INTEGRITY_VTLIST                 2U
  43:./os/rt/include/chsys.h **** #define CH_INTEGRITY_REGISTRY               4U
  44:./os/rt/include/chsys.h **** #define CH_INTEGRITY_PORT                   8U
  45:./os/rt/include/chsys.h **** /** @} */
  46:./os/rt/include/chsys.h **** 
  47:./os/rt/include/chsys.h **** /*===========================================================================*/
  48:./os/rt/include/chsys.h **** /* Module pre-compile time settings.                                         */
  49:./os/rt/include/chsys.h **** /*===========================================================================*/
  50:./os/rt/include/chsys.h **** 
  51:./os/rt/include/chsys.h **** /*===========================================================================*/
  52:./os/rt/include/chsys.h **** /* Derived constants and error checks.                                       */
  53:./os/rt/include/chsys.h **** /*===========================================================================*/
  54:./os/rt/include/chsys.h **** 
  55:./os/rt/include/chsys.h **** /*===========================================================================*/
  56:./os/rt/include/chsys.h **** /* Module data structures and types.                                         */
  57:./os/rt/include/chsys.h **** /*===========================================================================*/
  58:./os/rt/include/chsys.h **** 
  59:./os/rt/include/chsys.h **** /*===========================================================================*/
  60:./os/rt/include/chsys.h **** /* Module macros.                                                            */
  61:./os/rt/include/chsys.h **** /*===========================================================================*/
  62:./os/rt/include/chsys.h **** 
  63:./os/rt/include/chsys.h **** /**
  64:./os/rt/include/chsys.h ****  * @name    ISRs abstraction macros
  65:./os/rt/include/chsys.h ****  */
  66:./os/rt/include/chsys.h **** /**
  67:./os/rt/include/chsys.h ****  * @brief   Priority level validation macro.
  68:./os/rt/include/chsys.h ****  * @details This macro determines if the passed value is a valid priority
  69:./os/rt/include/chsys.h ****  *          level for the underlying architecture.
  70:./os/rt/include/chsys.h ****  *
  71:./os/rt/include/chsys.h ****  * @param[in] prio      the priority level
  72:./os/rt/include/chsys.h ****  * @return              Priority range result.
  73:./os/rt/include/chsys.h ****  * @retval false        if the priority is invalid or if the architecture
  74:./os/rt/include/chsys.h ****  *                      does not support priorities.
  75:./os/rt/include/chsys.h ****  * @retval true         if the priority is valid.
  76:./os/rt/include/chsys.h ****  */
  77:./os/rt/include/chsys.h **** #if defined(PORT_IRQ_IS_VALID_PRIORITY) || defined(__DOXYGEN__)
  78:./os/rt/include/chsys.h **** #define CH_IRQ_IS_VALID_PRIORITY(prio)                                      \
  79:./os/rt/include/chsys.h ****   PORT_IRQ_IS_VALID_PRIORITY(prio)
  80:./os/rt/include/chsys.h **** #else
  81:./os/rt/include/chsys.h **** #define CH_IRQ_IS_VALID_PRIORITY(prio) false
  82:./os/rt/include/chsys.h **** #endif
  83:./os/rt/include/chsys.h **** 
  84:./os/rt/include/chsys.h **** /**
  85:./os/rt/include/chsys.h ****  * @brief   Priority level validation macro.
  86:./os/rt/include/chsys.h ****  * @details This macro determines if the passed value is a valid priority
  87:./os/rt/include/chsys.h ****  *          level that cannot preempt the kernel critical zone.
  88:./os/rt/include/chsys.h ****  *
  89:./os/rt/include/chsys.h ****  * @param[in] prio      the priority level
  90:./os/rt/include/chsys.h ****  * @return              Priority range result.
  91:./os/rt/include/chsys.h ****  * @retval false        if the priority is invalid or if the architecture
  92:./os/rt/include/chsys.h ****  *                      does not support priorities.
  93:./os/rt/include/chsys.h ****  * @retval true         if the priority is valid.
  94:./os/rt/include/chsys.h ****  */
  95:./os/rt/include/chsys.h **** #if defined(PORT_IRQ_IS_VALID_KERNEL_PRIORITY) || defined(__DOXYGEN__)
  96:./os/rt/include/chsys.h **** #define CH_IRQ_IS_VALID_KERNEL_PRIORITY(prio)                               \
  97:./os/rt/include/chsys.h ****   PORT_IRQ_IS_VALID_KERNEL_PRIORITY(prio)
  98:./os/rt/include/chsys.h **** #else
  99:./os/rt/include/chsys.h **** #define CH_IRQ_IS_VALID_KERNEL_PRIORITY(prio) false
 100:./os/rt/include/chsys.h **** #endif
 101:./os/rt/include/chsys.h **** 
 102:./os/rt/include/chsys.h **** /**
 103:./os/rt/include/chsys.h ****  * @brief   IRQ handler enter code.
 104:./os/rt/include/chsys.h ****  * @note    Usually IRQ handlers functions are also declared naked.
 105:./os/rt/include/chsys.h ****  * @note    On some architectures this macro can be empty.
 106:./os/rt/include/chsys.h ****  *
 107:./os/rt/include/chsys.h ****  * @special
 108:./os/rt/include/chsys.h ****  */
 109:./os/rt/include/chsys.h **** #define CH_IRQ_PROLOGUE()                                                   \
 110:./os/rt/include/chsys.h ****   PORT_IRQ_PROLOGUE();                                                      \
 111:./os/rt/include/chsys.h ****   _stats_increase_irq();                                                    \
 112:./os/rt/include/chsys.h ****   _dbg_check_enter_isr()
 113:./os/rt/include/chsys.h **** 
 114:./os/rt/include/chsys.h **** /**
 115:./os/rt/include/chsys.h ****  * @brief   IRQ handler exit code.
 116:./os/rt/include/chsys.h ****  * @note    Usually IRQ handlers function are also declared naked.
 117:./os/rt/include/chsys.h ****  * @note    This macro usually performs the final reschedule by using
 118:./os/rt/include/chsys.h ****  *          @p chSchIsPreemptionRequired() and @p chSchDoReschedule().
 119:./os/rt/include/chsys.h ****  *
 120:./os/rt/include/chsys.h ****  * @special
 121:./os/rt/include/chsys.h ****  */
 122:./os/rt/include/chsys.h **** #define CH_IRQ_EPILOGUE()                                                   \
 123:./os/rt/include/chsys.h ****   _dbg_check_leave_isr();                                                   \
 124:./os/rt/include/chsys.h ****   PORT_IRQ_EPILOGUE()
 125:./os/rt/include/chsys.h **** 
 126:./os/rt/include/chsys.h **** /**
 127:./os/rt/include/chsys.h ****  * @brief   Standard normal IRQ handler declaration.
 128:./os/rt/include/chsys.h ****  * @note    @p id can be a function name or a vector number depending on the
 129:./os/rt/include/chsys.h ****  *          port implementation.
 130:./os/rt/include/chsys.h ****  *
 131:./os/rt/include/chsys.h ****  * @special
 132:./os/rt/include/chsys.h ****  */
 133:./os/rt/include/chsys.h **** #define CH_IRQ_HANDLER(id) PORT_IRQ_HANDLER(id)
 134:./os/rt/include/chsys.h **** /** @} */
 135:./os/rt/include/chsys.h **** 
 136:./os/rt/include/chsys.h **** /**
 137:./os/rt/include/chsys.h ****  * @name    Fast ISRs abstraction macros
 138:./os/rt/include/chsys.h ****  */
 139:./os/rt/include/chsys.h **** /**
 140:./os/rt/include/chsys.h ****  * @brief   Standard fast IRQ handler declaration.
 141:./os/rt/include/chsys.h ****  * @note    @p id can be a function name or a vector number depending on the
 142:./os/rt/include/chsys.h ****  *          port implementation.
 143:./os/rt/include/chsys.h ****  * @note    Not all architectures support fast interrupts.
 144:./os/rt/include/chsys.h ****  *
 145:./os/rt/include/chsys.h ****  * @special
 146:./os/rt/include/chsys.h ****  */
 147:./os/rt/include/chsys.h **** #define CH_FAST_IRQ_HANDLER(id) PORT_FAST_IRQ_HANDLER(id)
 148:./os/rt/include/chsys.h **** /** @} */
 149:./os/rt/include/chsys.h **** 
 150:./os/rt/include/chsys.h **** /**
 151:./os/rt/include/chsys.h ****  * @name    Time conversion utilities for the realtime counter
 152:./os/rt/include/chsys.h ****  * @{
 153:./os/rt/include/chsys.h ****  */
 154:./os/rt/include/chsys.h **** /**
 155:./os/rt/include/chsys.h ****  * @brief   Seconds to realtime counter.
 156:./os/rt/include/chsys.h ****  * @details Converts from seconds to realtime counter cycles.
 157:./os/rt/include/chsys.h ****  * @note    The macro assumes that @p freq >= @p 1.
 158:./os/rt/include/chsys.h ****  *
 159:./os/rt/include/chsys.h ****  * @param[in] freq      clock frequency, in Hz, of the realtime counter
 160:./os/rt/include/chsys.h ****  * @param[in] sec       number of seconds
 161:./os/rt/include/chsys.h ****  * @return              The number of cycles.
 162:./os/rt/include/chsys.h ****  *
 163:./os/rt/include/chsys.h ****  * @api
 164:./os/rt/include/chsys.h ****  */
 165:./os/rt/include/chsys.h **** #define S2RTC(freq, sec) ((freq) * (sec))
 166:./os/rt/include/chsys.h **** 
 167:./os/rt/include/chsys.h **** /**
 168:./os/rt/include/chsys.h ****  * @brief   Milliseconds to realtime counter.
 169:./os/rt/include/chsys.h ****  * @details Converts from milliseconds to realtime counter cycles.
 170:./os/rt/include/chsys.h ****  * @note    The result is rounded upward to the next millisecond boundary.
 171:./os/rt/include/chsys.h ****  * @note    The macro assumes that @p freq >= @p 1000.
 172:./os/rt/include/chsys.h ****  *
 173:./os/rt/include/chsys.h ****  * @param[in] freq      clock frequency, in Hz, of the realtime counter
 174:./os/rt/include/chsys.h ****  * @param[in] msec      number of milliseconds
 175:./os/rt/include/chsys.h ****  * @return              The number of cycles.
 176:./os/rt/include/chsys.h ****  *
 177:./os/rt/include/chsys.h ****  * @api
 178:./os/rt/include/chsys.h ****  */
 179:./os/rt/include/chsys.h **** #define MS2RTC(freq, msec) (rtcnt_t)((((freq) + 999UL) / 1000UL) * (msec))
 180:./os/rt/include/chsys.h **** 
 181:./os/rt/include/chsys.h **** /**
 182:./os/rt/include/chsys.h ****  * @brief   Microseconds to realtime counter.
 183:./os/rt/include/chsys.h ****  * @details Converts from microseconds to realtime counter cycles.
 184:./os/rt/include/chsys.h ****  * @note    The result is rounded upward to the next microsecond boundary.
 185:./os/rt/include/chsys.h ****  * @note    The macro assumes that @p freq >= @p 1000000.
 186:./os/rt/include/chsys.h ****  *
 187:./os/rt/include/chsys.h ****  * @param[in] freq      clock frequency, in Hz, of the realtime counter
 188:./os/rt/include/chsys.h ****  * @param[in] usec      number of microseconds
 189:./os/rt/include/chsys.h ****  * @return              The number of cycles.
 190:./os/rt/include/chsys.h ****  *
 191:./os/rt/include/chsys.h ****  * @api
 192:./os/rt/include/chsys.h ****  */
 193:./os/rt/include/chsys.h **** #define US2RTC(freq, usec) (rtcnt_t)((((freq) + 999999UL) / 1000000UL) * (usec))
 194:./os/rt/include/chsys.h **** 
 195:./os/rt/include/chsys.h **** /**
 196:./os/rt/include/chsys.h ****  * @brief   Realtime counter cycles to seconds.
 197:./os/rt/include/chsys.h ****  * @details Converts from realtime counter cycles number to seconds.
 198:./os/rt/include/chsys.h ****  * @note    The result is rounded up to the next second boundary.
 199:./os/rt/include/chsys.h ****  * @note    The macro assumes that @p freq >= @p 1.
 200:./os/rt/include/chsys.h ****  *
 201:./os/rt/include/chsys.h ****  * @param[in] freq      clock frequency, in Hz, of the realtime counter
 202:./os/rt/include/chsys.h ****  * @param[in] n         number of cycles
 203:./os/rt/include/chsys.h ****  * @return              The number of seconds.
 204:./os/rt/include/chsys.h ****  *
 205:./os/rt/include/chsys.h ****  * @api
 206:./os/rt/include/chsys.h ****  */
 207:./os/rt/include/chsys.h **** #define RTC2S(freq, n) ((((n) - 1UL) / (freq)) + 1UL)
 208:./os/rt/include/chsys.h **** 
 209:./os/rt/include/chsys.h **** /**
 210:./os/rt/include/chsys.h ****  * @brief   Realtime counter cycles to milliseconds.
 211:./os/rt/include/chsys.h ****  * @details Converts from realtime counter cycles number to milliseconds.
 212:./os/rt/include/chsys.h ****  * @note    The result is rounded up to the next millisecond boundary.
 213:./os/rt/include/chsys.h ****  * @note    The macro assumes that @p freq >= @p 1000.
 214:./os/rt/include/chsys.h ****  *
 215:./os/rt/include/chsys.h ****  * @param[in] freq      clock frequency, in Hz, of the realtime counter
 216:./os/rt/include/chsys.h ****  * @param[in] n         number of cycles
 217:./os/rt/include/chsys.h ****  * @return              The number of milliseconds.
 218:./os/rt/include/chsys.h ****  *
 219:./os/rt/include/chsys.h ****  * @api
 220:./os/rt/include/chsys.h ****  */
 221:./os/rt/include/chsys.h **** #define RTC2MS(freq, n) ((((n) - 1UL) / ((freq) / 1000UL)) + 1UL)
 222:./os/rt/include/chsys.h **** 
 223:./os/rt/include/chsys.h **** /**
 224:./os/rt/include/chsys.h ****  * @brief   Realtime counter cycles to microseconds.
 225:./os/rt/include/chsys.h ****  * @details Converts from realtime counter cycles number to microseconds.
 226:./os/rt/include/chsys.h ****  * @note    The result is rounded up to the next microsecond boundary.
 227:./os/rt/include/chsys.h ****  * @note    The macro assumes that @p freq >= @p 1000000.
 228:./os/rt/include/chsys.h ****  *
 229:./os/rt/include/chsys.h ****  * @param[in] freq      clock frequency, in Hz, of the realtime counter
 230:./os/rt/include/chsys.h ****  * @param[in] n         number of cycles
 231:./os/rt/include/chsys.h ****  * @return              The number of microseconds.
 232:./os/rt/include/chsys.h ****  *
 233:./os/rt/include/chsys.h ****  * @api
 234:./os/rt/include/chsys.h ****  */
 235:./os/rt/include/chsys.h **** #define RTC2US(freq, n) ((((n) - 1UL) / ((freq) / 1000000UL)) + 1UL)
 236:./os/rt/include/chsys.h **** /** @} */
 237:./os/rt/include/chsys.h **** 
 238:./os/rt/include/chsys.h **** /**
 239:./os/rt/include/chsys.h ****  * @brief   Returns the current value of the system real time counter.
 240:./os/rt/include/chsys.h ****  * @note    This function is only available if the port layer supports the
 241:./os/rt/include/chsys.h ****  *          option @p PORT_SUPPORTS_RT.
 242:./os/rt/include/chsys.h ****  *
 243:./os/rt/include/chsys.h ****  * @return              The value of the system realtime counter of
 244:./os/rt/include/chsys.h ****  *                      type rtcnt_t.
 245:./os/rt/include/chsys.h ****  *
 246:./os/rt/include/chsys.h ****  * @xclass
 247:./os/rt/include/chsys.h ****  */
 248:./os/rt/include/chsys.h **** #if (PORT_SUPPORTS_RT == TRUE) || defined(__DOXYGEN__)
 249:./os/rt/include/chsys.h **** #define chSysGetRealtimeCounterX() (rtcnt_t)port_rt_get_counter_value()
 250:./os/rt/include/chsys.h **** #endif
 251:./os/rt/include/chsys.h **** 
 252:./os/rt/include/chsys.h **** /**
 253:./os/rt/include/chsys.h ****  * @brief   Performs a context switch.
 254:./os/rt/include/chsys.h ****  * @note    Not a user function, it is meant to be invoked by the scheduler
 255:./os/rt/include/chsys.h ****  *          itself or from within the port layer.
 256:./os/rt/include/chsys.h ****  *
 257:./os/rt/include/chsys.h ****  * @param[in] ntp       the thread to be switched in
 258:./os/rt/include/chsys.h ****  * @param[in] otp       the thread to be switched out
 259:./os/rt/include/chsys.h ****  *
 260:./os/rt/include/chsys.h ****  * @special
 261:./os/rt/include/chsys.h ****  */
 262:./os/rt/include/chsys.h **** #define chSysSwitch(ntp, otp) {                                             \
 263:./os/rt/include/chsys.h ****                                                                             \
 264:./os/rt/include/chsys.h ****   _dbg_trace(otp);                                                          \
 265:./os/rt/include/chsys.h ****   _stats_ctxswc(ntp, otp);                                                  \
 266:./os/rt/include/chsys.h ****   CH_CFG_CONTEXT_SWITCH_HOOK(ntp, otp);                                     \
 267:./os/rt/include/chsys.h ****   port_switch(ntp, otp);                                                    \
 268:./os/rt/include/chsys.h **** }
 269:./os/rt/include/chsys.h **** 
 270:./os/rt/include/chsys.h **** /*===========================================================================*/
 271:./os/rt/include/chsys.h **** /* External declarations.                                                    */
 272:./os/rt/include/chsys.h **** /*===========================================================================*/
 273:./os/rt/include/chsys.h **** 
 274:./os/rt/include/chsys.h **** #ifdef __cplusplus
 275:./os/rt/include/chsys.h **** extern "C" {
 276:./os/rt/include/chsys.h **** #endif
 277:./os/rt/include/chsys.h ****   void chSysInit(void);
 278:./os/rt/include/chsys.h ****   void chSysHalt(const char *reason);
 279:./os/rt/include/chsys.h ****   bool chSysIntegrityCheckI(unsigned testmask);
 280:./os/rt/include/chsys.h ****   void chSysTimerHandlerI(void);
 281:./os/rt/include/chsys.h ****   syssts_t chSysGetStatusAndLockX(void);
 282:./os/rt/include/chsys.h ****   void chSysRestoreStatusX(syssts_t sts);
 283:./os/rt/include/chsys.h **** #if PORT_SUPPORTS_RT
 284:./os/rt/include/chsys.h ****   bool chSysIsCounterWithinX(rtcnt_t cnt, rtcnt_t start, rtcnt_t end);
 285:./os/rt/include/chsys.h ****   void chSysPolledDelayX(rtcnt_t cycles);
 286:./os/rt/include/chsys.h **** #endif
 287:./os/rt/include/chsys.h **** #ifdef __cplusplus
 288:./os/rt/include/chsys.h **** }
 289:./os/rt/include/chsys.h **** #endif
 290:./os/rt/include/chsys.h **** 
 291:./os/rt/include/chsys.h **** /*===========================================================================*/
 292:./os/rt/include/chsys.h **** /* Module inline functions.                                                  */
 293:./os/rt/include/chsys.h **** /*===========================================================================*/
 294:./os/rt/include/chsys.h **** 
 295:./os/rt/include/chsys.h **** /**
 296:./os/rt/include/chsys.h ****  * @brief   Raises the system interrupt priority mask to the maximum level.
 297:./os/rt/include/chsys.h ****  * @details All the maskable interrupt sources are disabled regardless their
 298:./os/rt/include/chsys.h ****  *          hardware priority.
 299:./os/rt/include/chsys.h ****  * @note    Do not invoke this API from within a kernel lock.
 300:./os/rt/include/chsys.h ****  *
 301:./os/rt/include/chsys.h ****  * @special
 302:./os/rt/include/chsys.h ****  */
 303:./os/rt/include/chsys.h **** static inline void chSysDisable(void) {
 304:./os/rt/include/chsys.h **** 
 305:./os/rt/include/chsys.h ****   port_disable();
 306:./os/rt/include/chsys.h ****   _dbg_check_disable();
 307:./os/rt/include/chsys.h **** }
 308:./os/rt/include/chsys.h **** 
 309:./os/rt/include/chsys.h **** /**
 310:./os/rt/include/chsys.h ****  * @brief   Raises the system interrupt priority mask to system level.
 311:./os/rt/include/chsys.h ****  * @details The interrupt sources that should not be able to preempt the kernel
 312:./os/rt/include/chsys.h ****  *          are disabled, interrupt sources with higher priority are still
 313:./os/rt/include/chsys.h ****  *          enabled.
 314:./os/rt/include/chsys.h ****  * @note    Do not invoke this API from within a kernel lock.
 315:./os/rt/include/chsys.h ****  * @note    This API is no replacement for @p chSysLock(), the @p chSysLock()
 316:./os/rt/include/chsys.h ****  *          could do more than just disable the interrupts.
 317:./os/rt/include/chsys.h ****  *
 318:./os/rt/include/chsys.h ****  * @special
 319:./os/rt/include/chsys.h ****  */
 320:./os/rt/include/chsys.h **** static inline void chSysSuspend(void) {
 321:./os/rt/include/chsys.h **** 
 322:./os/rt/include/chsys.h ****   port_suspend();
 323:./os/rt/include/chsys.h ****   _dbg_check_suspend();
 324:./os/rt/include/chsys.h **** }
 325:./os/rt/include/chsys.h **** 
 326:./os/rt/include/chsys.h **** /**
 327:./os/rt/include/chsys.h ****  * @brief   Lowers the system interrupt priority mask to user level.
 328:./os/rt/include/chsys.h ****  * @details All the interrupt sources are enabled.
 329:./os/rt/include/chsys.h ****  * @note    Do not invoke this API from within a kernel lock.
 330:./os/rt/include/chsys.h ****  * @note    This API is no replacement for @p chSysUnlock(), the
 331:./os/rt/include/chsys.h ****  *          @p chSysUnlock() could do more than just enable the interrupts.
 332:./os/rt/include/chsys.h ****  *
 333:./os/rt/include/chsys.h ****  * @special
 334:./os/rt/include/chsys.h ****  */
 335:./os/rt/include/chsys.h **** static inline void chSysEnable(void) {
 336:./os/rt/include/chsys.h **** 
 337:./os/rt/include/chsys.h ****   _dbg_check_enable();
 338:./os/rt/include/chsys.h ****   port_enable();
 339:./os/rt/include/chsys.h **** }
 340:./os/rt/include/chsys.h **** 
 341:./os/rt/include/chsys.h **** /**
 342:./os/rt/include/chsys.h ****  * @brief   Enters the kernel lock state.
 343:./os/rt/include/chsys.h ****  *
 344:./os/rt/include/chsys.h ****  * @special
 345:./os/rt/include/chsys.h ****  */
 346:./os/rt/include/chsys.h **** static inline void chSysLock(void)  {
 347:./os/rt/include/chsys.h **** 
 348:./os/rt/include/chsys.h ****   port_lock();
 138               		.loc 4 348 0
 139               	/* #APP */
 140               	 ;  348 "./os/rt/include/chsys.h" 1
 141 000e F894      		cli
 142               	 ;  0 "" 2
 143               	.LVL12:
 144               	/* #NOAPP */
 145               	.LBE46:
 146               	.LBE45:
 147               	.LBB47:
 148               	.LBB48:
 149               	.LBB49:
 150               	.LBB50:
 213:./os/rt/include/chvt.h **** }
 214:./os/rt/include/chvt.h **** 
 215:./os/rt/include/chvt.h **** /**
 216:./os/rt/include/chvt.h ****  * @brief   Current system time.
 217:./os/rt/include/chvt.h ****  * @details Returns the number of system ticks since the @p chSysInit()
 218:./os/rt/include/chvt.h ****  *          invocation.
 219:./os/rt/include/chvt.h ****  * @note    The counter can reach its maximum and then restart from zero.
 220:./os/rt/include/chvt.h ****  * @note    This function can be called from any context but its atomicity
 221:./os/rt/include/chvt.h ****  *          is not guaranteed on architectures whose word size is less than
 222:./os/rt/include/chvt.h ****  *          @p systime_t size.
 223:./os/rt/include/chvt.h ****  *
 224:./os/rt/include/chvt.h ****  * @return              The system time in ticks.
 225:./os/rt/include/chvt.h ****  *
 226:./os/rt/include/chvt.h ****  * @xclass
 227:./os/rt/include/chvt.h ****  */
 228:./os/rt/include/chvt.h **** static inline systime_t chVTGetSystemTimeX(void) {
 229:./os/rt/include/chvt.h **** 
 230:./os/rt/include/chvt.h **** #if CH_CFG_ST_TIMEDELTA == 0
 231:./os/rt/include/chvt.h ****   return ch.vtlist.vt_systime;
 232:./os/rt/include/chvt.h **** #else /* CH_CFG_ST_TIMEDELTA > 0 */
 233:./os/rt/include/chvt.h ****   return port_timer_get_time();
 234:./os/rt/include/chvt.h **** #endif /* CH_CFG_ST_TIMEDELTA > 0 */
 235:./os/rt/include/chvt.h **** }
 236:./os/rt/include/chvt.h **** 
 237:./os/rt/include/chvt.h **** /**
 238:./os/rt/include/chvt.h ****  * @brief   Current system time.
 239:./os/rt/include/chvt.h ****  * @details Returns the number of system ticks since the @p chSysInit()
 240:./os/rt/include/chvt.h ****  *          invocation.
 241:./os/rt/include/chvt.h ****  * @note    The counter can reach its maximum and then restart from zero.
 242:./os/rt/include/chvt.h ****  *
 243:./os/rt/include/chvt.h ****  * @return              The system time in ticks.
 244:./os/rt/include/chvt.h ****  *
 245:./os/rt/include/chvt.h ****  * @api
 246:./os/rt/include/chvt.h ****  */
 247:./os/rt/include/chvt.h **** static inline systime_t chVTGetSystemTime(void) {
 248:./os/rt/include/chvt.h ****   systime_t systime;
 249:./os/rt/include/chvt.h **** 
 250:./os/rt/include/chvt.h ****   chSysLock();
 251:./os/rt/include/chvt.h ****   systime = chVTGetSystemTimeX();
 252:./os/rt/include/chvt.h ****   chSysUnlock();
 253:./os/rt/include/chvt.h **** 
 254:./os/rt/include/chvt.h ****   return systime;
 255:./os/rt/include/chvt.h **** }
 256:./os/rt/include/chvt.h **** 
 257:./os/rt/include/chvt.h **** /**
 258:./os/rt/include/chvt.h ****  * @brief   Returns the elapsed time since the specified start time.
 259:./os/rt/include/chvt.h ****  *
 260:./os/rt/include/chvt.h ****  * @param[in] start     start time
 261:./os/rt/include/chvt.h ****  * @return              The elapsed time.
 262:./os/rt/include/chvt.h ****  *
 263:./os/rt/include/chvt.h ****  * @xclass
 264:./os/rt/include/chvt.h ****  */
 265:./os/rt/include/chvt.h **** static inline systime_t chVTTimeElapsedSinceX(systime_t start) {
 266:./os/rt/include/chvt.h **** 
 267:./os/rt/include/chvt.h ****   return chVTGetSystemTimeX() - start;
 268:./os/rt/include/chvt.h **** }
 269:./os/rt/include/chvt.h **** 
 270:./os/rt/include/chvt.h **** /**
 271:./os/rt/include/chvt.h ****  * @brief   Checks if the specified time is within the specified time window.
 272:./os/rt/include/chvt.h ****  * @note    When start==end then the function returns always true because the
 273:./os/rt/include/chvt.h ****  *          whole time range is specified.
 274:./os/rt/include/chvt.h ****  * @note    This function can be called from any context.
 275:./os/rt/include/chvt.h ****  *
 276:./os/rt/include/chvt.h ****  * @param[in] time      the time to be verified
 277:./os/rt/include/chvt.h ****  * @param[in] start     the start of the time window (inclusive)
 278:./os/rt/include/chvt.h ****  * @param[in] end       the end of the time window (non inclusive)
 279:./os/rt/include/chvt.h ****  * @retval true         current time within the specified time window.
 280:./os/rt/include/chvt.h ****  * @retval false        current time not within the specified time window.
 281:./os/rt/include/chvt.h ****  *
 282:./os/rt/include/chvt.h ****  * @xclass
 283:./os/rt/include/chvt.h ****  */
 284:./os/rt/include/chvt.h **** static inline bool chVTIsTimeWithinX(systime_t time,
 285:./os/rt/include/chvt.h ****                                      systime_t start,
 286:./os/rt/include/chvt.h ****                                      systime_t end) {
 287:./os/rt/include/chvt.h **** 
 288:./os/rt/include/chvt.h ****   return (bool)((systime_t)(time - start) < (systime_t)(end - start));
 289:./os/rt/include/chvt.h **** }
 290:./os/rt/include/chvt.h **** 
 291:./os/rt/include/chvt.h **** /**
 292:./os/rt/include/chvt.h ****  * @brief   Checks if the current system time is within the specified time
 293:./os/rt/include/chvt.h ****  *          window.
 294:./os/rt/include/chvt.h ****  * @note    When start==end then the function returns always true because the
 295:./os/rt/include/chvt.h ****  *          whole time range is specified.
 296:./os/rt/include/chvt.h ****  *
 297:./os/rt/include/chvt.h ****  * @param[in] start     the start of the time window (inclusive)
 298:./os/rt/include/chvt.h ****  * @param[in] end       the end of the time window (non inclusive)
 299:./os/rt/include/chvt.h ****  * @retval true         current time within the specified time window.
 300:./os/rt/include/chvt.h ****  * @retval false        current time not within the specified time window.
 301:./os/rt/include/chvt.h ****  *
 302:./os/rt/include/chvt.h ****  * @xclass
 303:./os/rt/include/chvt.h ****  */
 304:./os/rt/include/chvt.h **** static inline bool chVTIsSystemTimeWithinX(systime_t start, systime_t end) {
 305:./os/rt/include/chvt.h **** 
 306:./os/rt/include/chvt.h ****   return chVTIsTimeWithinX(chVTGetSystemTimeX(), start, end);
 307:./os/rt/include/chvt.h **** }
 308:./os/rt/include/chvt.h **** 
 309:./os/rt/include/chvt.h **** /**
 310:./os/rt/include/chvt.h ****  * @brief   Checks if the current system time is within the specified time
 311:./os/rt/include/chvt.h ****  *          window.
 312:./os/rt/include/chvt.h ****  * @note    When start==end then the function returns always true because the
 313:./os/rt/include/chvt.h ****  *          whole time range is specified.
 314:./os/rt/include/chvt.h ****  *
 315:./os/rt/include/chvt.h ****  * @param[in] start     the start of the time window (inclusive)
 316:./os/rt/include/chvt.h ****  * @param[in] end       the end of the time window (non inclusive)
 317:./os/rt/include/chvt.h ****  * @retval true         current time within the specified time window.
 318:./os/rt/include/chvt.h ****  * @retval false        current time not within the specified time window.
 319:./os/rt/include/chvt.h ****  *
 320:./os/rt/include/chvt.h ****  * @api
 321:./os/rt/include/chvt.h ****  */
 322:./os/rt/include/chvt.h **** static inline bool chVTIsSystemTimeWithin(systime_t start, systime_t end) {
 323:./os/rt/include/chvt.h **** 
 324:./os/rt/include/chvt.h ****   return chVTIsTimeWithinX(chVTGetSystemTime(), start, end);
 325:./os/rt/include/chvt.h **** }
 326:./os/rt/include/chvt.h **** 
 327:./os/rt/include/chvt.h **** /**
 328:./os/rt/include/chvt.h ****  * @brief   Returns the time interval until the next timer event.
 329:./os/rt/include/chvt.h ****  * @note    The return value is not perfectly accurate and can report values
 330:./os/rt/include/chvt.h ****  *          in excess of @p CH_CFG_ST_TIMEDELTA ticks.
 331:./os/rt/include/chvt.h ****  * @note    The interval returned by this function is only meaningful if
 332:./os/rt/include/chvt.h ****  *          more timers are not added to the list until the returned time.
 333:./os/rt/include/chvt.h ****  *
 334:./os/rt/include/chvt.h ****  * @param[out] timep    pointer to a variable that will contain the time
 335:./os/rt/include/chvt.h ****  *                      interval until the next timer elapses. This pointer
 336:./os/rt/include/chvt.h ****  *                      can be @p NULL if the information is not required.
 337:./os/rt/include/chvt.h ****  * @return              The time, in ticks, until next time event.
 338:./os/rt/include/chvt.h ****  * @retval false        if the timers list is empty.
 339:./os/rt/include/chvt.h ****  * @retval true         if the timers list contains at least one timer.
 340:./os/rt/include/chvt.h ****  *
 341:./os/rt/include/chvt.h ****  * @iclass
 342:./os/rt/include/chvt.h ****  */
 343:./os/rt/include/chvt.h **** static inline bool chVTGetTimersStateI(systime_t *timep) {
 344:./os/rt/include/chvt.h **** 
 345:./os/rt/include/chvt.h ****   chDbgCheckClassI();
 346:./os/rt/include/chvt.h **** 
 347:./os/rt/include/chvt.h ****   if (&ch.vtlist == (virtual_timers_list_t *)ch.vtlist.vt_next) {
 348:./os/rt/include/chvt.h ****     return false;
 349:./os/rt/include/chvt.h ****   }
 350:./os/rt/include/chvt.h **** 
 351:./os/rt/include/chvt.h ****   if (timep != NULL) {
 352:./os/rt/include/chvt.h **** #if CH_CFG_ST_TIMEDELTA == 0
 353:./os/rt/include/chvt.h ****     *timep = ch.vtlist.vt_next->vt_delta;
 354:./os/rt/include/chvt.h **** #else
 355:./os/rt/include/chvt.h ****     *timep = ch.vtlist.vt_lasttime + ch.vtlist.vt_next->vt_delta +
 356:./os/rt/include/chvt.h ****              CH_CFG_ST_TIMEDELTA - chVTGetSystemTimeX();
 357:./os/rt/include/chvt.h **** #endif
 358:./os/rt/include/chvt.h ****   }
 359:./os/rt/include/chvt.h **** 
 360:./os/rt/include/chvt.h ****   return true;
 361:./os/rt/include/chvt.h **** }
 362:./os/rt/include/chvt.h **** 
 363:./os/rt/include/chvt.h **** /**
 364:./os/rt/include/chvt.h ****  * @brief   Returns @p true if the specified timer is armed.
 365:./os/rt/include/chvt.h ****  * @pre     The timer must have been initialized using @p chVTObjectInit()
 366:./os/rt/include/chvt.h ****  *          or @p chVTDoSetI().
 367:./os/rt/include/chvt.h ****  *
 368:./os/rt/include/chvt.h ****  * @param[in] vtp       the @p virtual_timer_t structure pointer
 369:./os/rt/include/chvt.h ****  * @return              true if the timer is armed.
 370:./os/rt/include/chvt.h ****  *
 371:./os/rt/include/chvt.h ****  * @iclass
 372:./os/rt/include/chvt.h ****  */
 373:./os/rt/include/chvt.h **** static inline bool chVTIsArmedI(virtual_timer_t *vtp) {
 374:./os/rt/include/chvt.h **** 
 375:./os/rt/include/chvt.h ****   chDbgCheckClassI();
 376:./os/rt/include/chvt.h **** 
 377:./os/rt/include/chvt.h ****   return (bool)(vtp->vt_func != NULL);
 378:./os/rt/include/chvt.h **** }
 379:./os/rt/include/chvt.h **** 
 380:./os/rt/include/chvt.h **** /**
 381:./os/rt/include/chvt.h ****  * @brief   Returns @p true if the specified timer is armed.
 382:./os/rt/include/chvt.h ****  * @pre     The timer must have been initialized using @p chVTObjectInit()
 383:./os/rt/include/chvt.h ****  *          or @p chVTDoSetI().
 384:./os/rt/include/chvt.h ****  *
 385:./os/rt/include/chvt.h ****  * @param[in] vtp       the @p virtual_timer_t structure pointer
 386:./os/rt/include/chvt.h ****  * @return              true if the timer is armed.
 387:./os/rt/include/chvt.h ****  *
 388:./os/rt/include/chvt.h ****  * @api
 389:./os/rt/include/chvt.h ****  */
 390:./os/rt/include/chvt.h **** static inline bool chVTIsArmed(virtual_timer_t *vtp) {
 391:./os/rt/include/chvt.h ****   bool b;
 392:./os/rt/include/chvt.h **** 
 393:./os/rt/include/chvt.h ****   chSysLock();
 394:./os/rt/include/chvt.h ****   b = chVTIsArmedI(vtp);
 395:./os/rt/include/chvt.h ****   chSysUnlock();
 396:./os/rt/include/chvt.h **** 
 397:./os/rt/include/chvt.h ****   return b;
 398:./os/rt/include/chvt.h **** }
 399:./os/rt/include/chvt.h **** 
 400:./os/rt/include/chvt.h **** /**
 401:./os/rt/include/chvt.h ****  * @brief   Disables a Virtual Timer.
 402:./os/rt/include/chvt.h ****  * @note    The timer is first checked and disabled only if armed.
 403:./os/rt/include/chvt.h ****  * @pre     The timer must have been initialized using @p chVTObjectInit()
 404:./os/rt/include/chvt.h ****  *          or @p chVTDoSetI().
 405:./os/rt/include/chvt.h ****  *
 406:./os/rt/include/chvt.h ****  * @param[in] vtp       the @p virtual_timer_t structure pointer
 407:./os/rt/include/chvt.h ****  *
 408:./os/rt/include/chvt.h ****  * @iclass
 409:./os/rt/include/chvt.h ****  */
 410:./os/rt/include/chvt.h **** static inline void chVTResetI(virtual_timer_t *vtp) {
 411:./os/rt/include/chvt.h **** 
 412:./os/rt/include/chvt.h ****   if (chVTIsArmedI(vtp)) {
 151               		.loc 3 412 0
 152 0010 8E81      		ldd r24,Y+6
 153 0012 9F81      		ldd r25,Y+7
 154               	.LVL13:
 155 0014 892B      		or r24,r25
 156 0016 01F0      		breq .L4
 413:./os/rt/include/chvt.h ****     chVTDoResetI(vtp);
 157               		.loc 3 413 0
 158 0018 CE01      		movw r24,r28
 159 001a 0E94 0000 		call chVTDoResetI
 160               	.LVL14:
 161               	.L4:
 162               	.LBE50:
 163               	.LBE49:
 414:./os/rt/include/chvt.h ****   }
 415:./os/rt/include/chvt.h **** }
 416:./os/rt/include/chvt.h **** 
 417:./os/rt/include/chvt.h **** /**
 418:./os/rt/include/chvt.h ****  * @brief   Disables a Virtual Timer.
 419:./os/rt/include/chvt.h ****  * @note    The timer is first checked and disabled only if armed.
 420:./os/rt/include/chvt.h ****  * @pre     The timer must have been initialized using @p chVTObjectInit()
 421:./os/rt/include/chvt.h ****  *          or @p chVTDoSetI().
 422:./os/rt/include/chvt.h ****  *
 423:./os/rt/include/chvt.h ****  * @param[in] vtp       the @p virtual_timer_t structure pointer
 424:./os/rt/include/chvt.h ****  *
 425:./os/rt/include/chvt.h ****  * @api
 426:./os/rt/include/chvt.h ****  */
 427:./os/rt/include/chvt.h **** static inline void chVTReset(virtual_timer_t *vtp) {
 428:./os/rt/include/chvt.h **** 
 429:./os/rt/include/chvt.h ****   chSysLock();
 430:./os/rt/include/chvt.h ****   chVTResetI(vtp);
 431:./os/rt/include/chvt.h ****   chSysUnlock();
 432:./os/rt/include/chvt.h **** }
 433:./os/rt/include/chvt.h **** 
 434:./os/rt/include/chvt.h **** /**
 435:./os/rt/include/chvt.h ****  * @brief   Enables a virtual timer.
 436:./os/rt/include/chvt.h ****  * @details If the virtual timer was already enabled then it is re-enabled
 437:./os/rt/include/chvt.h ****  *          using the new parameters.
 438:./os/rt/include/chvt.h ****  * @pre     The timer must have been initialized using @p chVTObjectInit()
 439:./os/rt/include/chvt.h ****  *          or @p chVTDoSetI().
 440:./os/rt/include/chvt.h ****  *
 441:./os/rt/include/chvt.h ****  * @param[in] vtp       the @p virtual_timer_t structure pointer
 442:./os/rt/include/chvt.h ****  * @param[in] delay     the number of ticks before the operation timeouts, the
 443:./os/rt/include/chvt.h ****  *                      special values are handled as follow:
 444:./os/rt/include/chvt.h ****  *                      - @a TIME_INFINITE is allowed but interpreted as a
 445:./os/rt/include/chvt.h ****  *                        normal time specification.
 446:./os/rt/include/chvt.h ****  *                      - @a TIME_IMMEDIATE this value is not allowed.
 447:./os/rt/include/chvt.h ****  *                      .
 448:./os/rt/include/chvt.h ****  * @param[in] vtfunc    the timer callback function. After invoking the
 449:./os/rt/include/chvt.h ****  *                      callback the timer is disabled and the structure can
 450:./os/rt/include/chvt.h ****  *                      be disposed or reused.
 451:./os/rt/include/chvt.h ****  * @param[in] par       a parameter that will be passed to the callback
 452:./os/rt/include/chvt.h ****  *                      function
 453:./os/rt/include/chvt.h ****  *
 454:./os/rt/include/chvt.h ****  * @iclass
 455:./os/rt/include/chvt.h ****  */
 456:./os/rt/include/chvt.h **** static inline void chVTSetI(virtual_timer_t *vtp, systime_t delay,
 457:./os/rt/include/chvt.h ****                             vtfunc_t vtfunc, void *par) {
 458:./os/rt/include/chvt.h **** 
 459:./os/rt/include/chvt.h ****   chVTResetI(vtp);
 460:./os/rt/include/chvt.h ****   chVTDoSetI(vtp, delay, vtfunc, par);
 164               		.loc 3 460 0
 165 001e 9E01      		movw r18,r28
 166 0020 40E0      		ldi r20,lo8(gs(tmrcb))
 167 0022 50E0      		ldi r21,hi8(gs(tmrcb))
 168 0024 B801      		movw r22,r16
 169 0026 CE01      		movw r24,r28
 170 0028 0E94 0000 		call chVTDoSetI
 171               	.LVL15:
 172               	.LBE48:
 173               	.LBE47:
 174               	.LBB51:
 175               	.LBB52:
 349:./os/rt/include/chsys.h ****   _stats_start_measure_crit_thd();
 350:./os/rt/include/chsys.h ****   _dbg_check_lock();
 351:./os/rt/include/chsys.h **** }
 352:./os/rt/include/chsys.h **** 
 353:./os/rt/include/chsys.h **** /**
 354:./os/rt/include/chsys.h ****  * @brief   Leaves the kernel lock state.
 355:./os/rt/include/chsys.h ****  *
 356:./os/rt/include/chsys.h ****  * @special
 357:./os/rt/include/chsys.h ****  */
 358:./os/rt/include/chsys.h **** static inline void chSysUnlock(void) {
 359:./os/rt/include/chsys.h **** 
 360:./os/rt/include/chsys.h ****   _dbg_check_unlock();
 361:./os/rt/include/chsys.h ****   _stats_stop_measure_crit_thd();
 362:./os/rt/include/chsys.h **** 
 363:./os/rt/include/chsys.h ****   /* The following condition can be triggered by the use of i-class functions
 364:./os/rt/include/chsys.h ****      in a critical section not followed by a chSchResceduleS(), this means
 365:./os/rt/include/chsys.h ****      that the current thread has a lower priority than the next thread in
 366:./os/rt/include/chsys.h ****      the ready list.*/
 367:./os/rt/include/chsys.h ****   chDbgAssert((ch.rlist.r_queue.p_next == (thread_t *)&ch.rlist.r_queue) ||
 368:./os/rt/include/chsys.h ****               (ch.rlist.r_current->p_prio >= ch.rlist.r_queue.p_next->p_prio),
 369:./os/rt/include/chsys.h ****               "priority order violation");
 370:./os/rt/include/chsys.h **** 
 371:./os/rt/include/chsys.h ****   port_unlock();
 176               		.loc 4 371 0
 177               	/* #APP */
 178               	 ;  371 "./os/rt/include/chsys.h" 1
 179 002c 7894      		sei
 180               	 ;  0 "" 2
 181               	/* epilogue start */
 182               	/* #NOAPP */
 183               	.LBE52:
 184               	.LBE51:
 185               	.LBE44:
  83:os/various/evtimer.c **** }
 186               		.loc 1 83 0
 187 002e DF91      		pop r29
 188 0030 CF91      		pop r28
 189               	.LVL16:
 190 0032 1F91      		pop r17
 191 0034 0F91      		pop r16
 192               	.LVL17:
 193 0036 0895      		ret
 194               		.cfi_endproc
 195               	.LFE109:
 197               		.text
 198               	.Letext0:
 199               		.file 5 "/Applications/Arduino-1.6.6.app/Contents/Java/hardware/tools/avr/avr/include/stdint.h"
 200               		.file 6 "./os/rt/ports/AVR/compilers/GCC/chtypes.h"
 201               		.file 7 "./os/rt/include/chsystypes.h"
 202               		.file 8 "./os/rt/include/chschd.h"
 203               		.file 9 "./os/rt/ports/AVR/chcore.h"
 204               		.file 10 "./os/rt/include/chsem.h"
 205               		.file 11 "./os/rt/include/chmtx.h"
 206               		.file 12 "os/various/evtimer.h"
DEFINED SYMBOLS
                            *ABS*:00000000 evtimer.c
/var/folders/gz/dqw9_7nx0r775dkkpq56lfw40000gn/T//cckXfBCm.s:2      *ABS*:0000003e __SP_H__
/var/folders/gz/dqw9_7nx0r775dkkpq56lfw40000gn/T//cckXfBCm.s:3      *ABS*:0000003d __SP_L__
/var/folders/gz/dqw9_7nx0r775dkkpq56lfw40000gn/T//cckXfBCm.s:4      *ABS*:0000003f __SREG__
/var/folders/gz/dqw9_7nx0r775dkkpq56lfw40000gn/T//cckXfBCm.s:5      *ABS*:00000000 __tmp_reg__
/var/folders/gz/dqw9_7nx0r775dkkpq56lfw40000gn/T//cckXfBCm.s:6      *ABS*:00000001 __zero_reg__
/var/folders/gz/dqw9_7nx0r775dkkpq56lfw40000gn/T//cckXfBCm.s:12     .text.tmrcb:00000000 tmrcb
/var/folders/gz/dqw9_7nx0r775dkkpq56lfw40000gn/T//cckXfBCm.s:64     .text.evtObjectInit:00000000 evtObjectInit
/var/folders/gz/dqw9_7nx0r775dkkpq56lfw40000gn/T//cckXfBCm.s:104    .text.evtStart:00000000 evtStart

UNDEFINED SYMBOLS
chEvtBroadcastFlagsI
chVTDoSetI
chVTDoResetI
